<?xml version="1.0" standalone="no"?>
<!DOCTYPE svg PUBLIC "-//W3C//DTD SVG 1.1//EN" "http://www.w3.org/Graphics/SVG/1.1/DTD/svg11.dtd">
<svg xmlns="http://www.w3.org/2000/svg">
<defs>
<font id="Inter" horiz-adv-x="1838"><font-face font-family="Inter Thin" units-per-em="2816" panose-1="2 0 5 3 0 0 0 2 0 4" ascent="2728" descent="-680" alphabetic="0"></font-face>
<glyph unicode=" " horiz-adv-x="792"></glyph>
<glyph unicode="!" horiz-adv-x="736" d="M400 2048V608H336V2048H400ZM368 -12Q338 -12 317 9T296 60Q296 90 317 111T368 132Q398 132 419 111T440 60Q440 40 431 24T405 -2T368 -12Z"></glyph>
<glyph unicode="&quot;" horiz-adv-x="960" d="M320 2048V1408H256V2048H320ZM704 2048V1408H640V2048H704Z"></glyph>
<glyph unicode="#" horiz-adv-x="1784" d="M1052 0L1388 2048H1452L1116 0H1052ZM64 636L76 700H1604L1592 636H64ZM332 0L668 2048H732L396 0H332ZM180 1348L192 1412H1720L1708 1348H180Z"></glyph>
<glyph unicode="$" horiz-adv-x="1724" d="M832 -256V2304H896V-256H832ZM1416 1536Q1401 1746 1256 1881T872 2016Q716 2016 593 1956T399 1792T328 1552Q328 1474 354 1408T433 1288T568 1190T760 1112L992 1040Q1125 999 1222 948T1382 834T1477 693T1508 520Q1508
360 1426 235T1197 39T856 -32Q669 -32 529 33T308 214T216 480H280Q290 348 363 247T561 89T856 32Q1032 32 1164 93T1370 265T1444 520Q1444 630 1396 713T1245 861T976 976L744 1048Q503 1124 384 1249T264 1552Q264 1703 343 1822T559 2011T872 2080Q1048 2080
1181 2010T1392 1817T1480 1536H1416Z"></glyph>
<glyph unicode="%" horiz-adv-x="2176" d="M1280 372V436Q1280 556 1324 646T1445 786T1616 836Q1711 836 1787 786T1907 646T1952 436V372Q1952 252 1908 162T1787 22T1616 -28Q1521 -28 1445 22T1325 162T1280 372ZM1344 436V372Q1344 219 1422 128T1616 36Q1731
36 1809 127T1888 372V436Q1888 589 1810 680T1616 772Q1501 772 1423 681T1344 436ZM224 1612V1676Q224 1796 268 1886T389 2026T560 2076Q655 2076 731 2026T851 1886T896 1676V1612Q896 1493 852 1403T731 1262T560 1212Q465 1212 389 1262T269 1402T224 1612ZM288
1676V1612Q288 1459 366 1368T560 1276Q675 1276 753 1367T832 1612V1676Q832 1829 754 1920T560 2012Q445 2012 367 1921T288 1676ZM348 0L1752 2048H1828L424 0H348Z"></glyph>
<glyph unicode="&amp;" horiz-adv-x="1644" d="M756 -28Q594 -28 464 44T257 239T180 512Q180 604 214 684T325 848T532 1032L832 1256Q977 1369 1038 1460T1100 1660Q1100 1813 1004 1912T760 2012Q660 2012 576 1961T440 1826T388 1644Q388 1578 417 1515T506
1371T660 1172L1588 0H1508L612 1132Q518 1250 454 1335T357 1493T324 1644Q324 1760 384 1858T543 2016T760 2076Q876 2076 967 2022T1111 1874T1164 1660Q1164 1537 1096 1432T872 1204L572 980Q389 839 317 737T244 512Q244 380 312 273T496 102T756 36Q906
39 1026 92T1235 238T1383 460T1468 744L1532 736Q1518 650 1491 565T1426 403T1344 264Q1333 248 1321 233T1296 204Q1194 96 1050 34T756 -28Z"></glyph>
<glyph unicode="&apos;" horiz-adv-x="576" d="M320 2048V1408H256V2048H320Z"></glyph>
<glyph unicode="(" horiz-adv-x="888" d="M328 864Q328 1188 404 1513T624 2144H692Q617 1989 561 1830T468 1510T411 1187T392 864Q392 648 426 432T527 3T692 -416H624Q480 -107 404 218T328 864Z"></glyph>
<glyph unicode=")" horiz-adv-x="888" d="M560 864Q560 540 484 215T264 -416H196Q271 -261 327 -102T420 218T477 541T496 864Q496 1080 462 1296T362 1725T196 2144H264Q408 1835 484 1510T560 864Z"></glyph>
<glyph unicode="*" horiz-adv-x="1408" d="M672 896V1416L220 1156L188 1212L640 1472L188 1732L220 1788L672 1528V2048H736V1528L1188 1788L1220 1732L768 1472L1220 1212L1188 1156L736 1416V896H672Z"></glyph>
<glyph unicode="+" horiz-adv-x="1792" d="M864 220V1380H928V220H864ZM316 768V832H1476V768H316Z"></glyph>
<glyph unicode="," horiz-adv-x="723" d="M456 280L436 176Q418 79 394 -50T345 -302T296 -500H244Q258 -424 278 -320T321 -91T368 168L388 280H456Z"></glyph>
<glyph unicode="-" horiz-adv-x="1236" d="M1000 910V846H236V910H1000Z"></glyph>
<glyph unicode="." horiz-adv-x="712" d="M356 -12Q326 -12 305 9T284 60Q284 90 305 111T356 132Q386 132 407 111T428 60Q428 40 419 24T393 -2T356 -12Z"></glyph>
<glyph unicode="/" horiz-adv-x="910" d="M820 2144L160 -308H92L752 2144H820Z"></glyph>
<glyph unicode="0" horiz-adv-x="1664" d="M832 -28Q637 -28 497 99T280 462T204 1024Q204 1350 280 1586T496 1949T832 2076Q1027 2076 1167 1949T1384 1586T1460 1024Q1460 698 1384 462T1168 99T832 -28ZM832 36Q1094 36 1245 299T1396 1024Q1396 1332 1328
1553T1133 1893T832 2012Q570 2012 419 1749T268 1024Q268 716 336 495T531 155T832 36Z"></glyph>
<glyph unicode="1" horiz-adv-x="1148" d="M716 2048V0H652V1980H640L200 1688V1764L628 2048H716Z"></glyph>
<glyph unicode="2" horiz-adv-x="1748" d="M260 0V52L916 828Q1070 1010 1156 1132T1277 1350T1312 1548Q1312 1682 1251 1787T1083 1952T840 2012Q698 2012 590 1948T421 1775T360 1536H296Q296 1685 365 1807T557 2003T840 2076Q994 2076 1115 2008T1306 1820T1376
1548Q1376 1435 1339 1332T1212 1102T964 788L360 72V64H1496V0H260Z"></glyph>
<glyph unicode="3" horiz-adv-x="1728" d="M872 -28Q699 -28 562 42T344 234T264 512H328Q328 374 400 267T595 98T872 36Q1035 36 1157 103T1347 283T1416 532Q1416 679 1338 790T1124 962T812 1024H780V1088H812Q966 1088 1089 1145T1284 1306T1356 1552Q1356
1684 1294 1788T1123 1952T868 2012Q725 2012 614 1952T440 1784T376 1536H312Q312 1694 384 1816T581 2007T868 2076Q1029 2076 1153 2008T1349 1821T1420 1552Q1420 1372 1317 1243T1040 1064V1056Q1241 1005 1360 866T1480 532Q1480 375 1403 248T1188 47T872
-28Z"></glyph>
<glyph unicode="4" horiz-adv-x="1676" d="M208 480V528L1148 2048H1188V1916H1140L300 552V544H1468V480H208ZM1148 0V500V520V2048H1212V0H1148Z"></glyph>
<glyph unicode="5" horiz-adv-x="1608" d="M776 -28Q617 -28 495 41T304 232T236 512H300Q299 302 430 169T776 36Q937 36 1060 115T1252 330T1320 636Q1319 818 1244 951T1044 1156T772 1228Q651 1228 553 1182T384 1064L288 1080L408 2048H1316V1984H464L360
1136H368Q445 1207 547 1249T772 1292Q937 1292 1076 1211T1300 982T1384 636Q1383 446 1305 296T1090 59T776 -28Z"></glyph>
<glyph unicode="6" horiz-adv-x="1640" d="M836 -28Q706 -28 595 31T402 208T274 507T228 928Q228 1135 257 1338T357 1709T549 1976T856 2076Q1008 2076 1121 2008T1300 1818T1376 1536H1312Q1297 1747 1178 1879T856 2012Q576 2012 434 1726T292 900H300Q333
1002 411 1081T598 1206T824 1252Q985 1252 1118 1168T1332 939T1412 612Q1412 442 1340 296T1138 61T836 -28ZM836 36Q984 36 1099 114T1281 323T1348 612Q1348 774 1278 904T1088 1111T820 1188Q703 1188 603 1140T433 1007T332 813T324 584Q358 404 430 282T606
98T836 36Z"></glyph>
<glyph unicode="7" horiz-adv-x="1541" d="M308 0L1276 1976V1984H164V2048H1352V1984L380 0H308Z"></glyph>
<glyph unicode="8" horiz-adv-x="1696" d="M848 -28Q672 -28 528 47T298 248T212 528Q212 650 267 760T420 948T644 1056V1064Q485 1119 383 1253T280 1556Q280 1702 356 1819T562 2006T848 2076Q1003 2076 1132 2007T1338 1821T1416 1556Q1416 1389 1315 1254T1052
1064V1056Q1178 1029 1275 950T1428 761T1484 528Q1484 374 1399 248T1169 47T848 -28ZM848 36Q1008 36 1137 103T1343 283T1420 532Q1420 668 1344 780T1138 960T848 1028Q688 1028 559 961T353 781T276 532Q276 396 352 284T559 104T848 36ZM848 1084Q987 1084
1101 1149T1283 1321T1352 1556Q1352 1684 1284 1787T1101 1951T848 2012Q710 2012 596 1952T413 1788T344 1556Q344 1429 412 1322T595 1149T848 1084Z"></glyph>
<glyph unicode="9" horiz-adv-x="1640" d="M804 2076Q935 2076 1045 2018T1238 1842T1366 1545T1412 1124Q1412 917 1383 713T1284 341T1092 73T784 -28Q632 -28 519 41T340 233T264 516H328Q343 306 463 171T784 36Q1063 36 1205 324T1348 1152H1340Q1308 1050
1229 971T1042 846T816 800Q654 800 521 884T308 1113T228 1440Q228 1610 300 1755T502 1988T804 2076ZM804 2012Q656 2012 541 1935T359 1728T292 1440Q292 1278 362 1148T552 941T820 864Q937 864 1037 912T1207 1046T1308 1239T1316 1468Q1282 1648 1210 1769T1034
1951T804 2012Z"></glyph>
<glyph unicode=":" horiz-adv-x="712" d="M356 148Q326 148 305 169T284 220Q284 250 305 271T356 292Q386 292 407 271T428 220Q428 200 419 184T393 158T356 148ZM356 1192Q326 1192 305 1213T284 1264Q284 1294 305 1315T356 1336Q386 1336 407 1315T428 1264Q428
1244 419 1228T393 1202T356 1192Z"></glyph>
<glyph unicode=";" horiz-adv-x="728" d="M456 280L436 176Q418 79 394 -50T345 -302T296 -500H244Q258 -424 278 -320T321 -91T368 168L388 280H456ZM392 1192Q362 1192 341 1213T320 1264Q320 1294 341 1315T392 1336Q422 1336 443 1315T464 1264Q464 1244 455
1228T429 1202T392 1192Z"></glyph>
<glyph unicode="&lt;" horiz-adv-x="1792" d="M348 768V832L1444 1544V1468L408 796L420 816V784L408 804L1444 132V56L348 768Z"></glyph>
<glyph unicode="=" horiz-adv-x="1792" d="M420 1036V1100H1372V1036H420ZM420 500V564H1372V500H420Z"></glyph>
<glyph unicode="&gt;" horiz-adv-x="1792" d="M1444 768L348 56V132L1384 804L1372 784V816L1384 796L348 1468V1544L1444 832V768Z"></glyph>
<glyph unicode="?" horiz-adv-x="1348" d="M584 608V748Q584 840 609 911T693 1047T856 1184Q958 1256 1016 1317T1099 1441T1124 1576Q1124 1703 1064 1801T901 1956T668 2012Q532 2012 426 1950T258 1780T196 1536H132Q132 1690 202 1812T393 2005T668 2076Q815
2076 932 2011T1119 1834T1188 1576Q1188 1492 1160 1421T1066 1280T892 1132Q797 1063 744 1007T669 890T648 748V608H584ZM616 -12Q586 -12 565 9T544 60Q544 90 565 111T616 132Q646 132 667 111T688 60Q688 40 679 24T653 -2T616 -12Z"></glyph>
<glyph unicode="@" horiz-adv-x="2636" d="M1320 -544Q1076 -544 862 -446T486 -176T232 225T140 712Q140 973 231 1201T485 1601T862 1870T1320 1968Q1563 1968 1776 1871T2151 1601T2404 1201T2496 712Q2496 576 2460 460T2359 258T2204 124T2008 76Q1928 76
1881 105T1813 202T1792 384H1784Q1736 284 1661 209T1492 91T1292 48Q1174 48 1071 99T890 242T768 453T724 712Q724 850 768 970T889 1182T1070 1324T1292 1376Q1398 1376 1492 1334T1661 1215T1784 1036H1792V1356H1856V384Q1856 237 1887 189T2008 140Q2130
140 2226 214T2377 418T2432 712Q2432 910 2376 1089T2217 1416T1976 1674T1671 1844T1320 1904Q1089 1904 887 1812T532 1556T291 1176T204 712Q204 465 291 249T531 -131T887 -387T1320 -480Q1430 -480 1535 -458T1739 -392T1928 -284L1968 -336Q1872 -404 1767
-450T1549 -520T1320 -544ZM1292 112Q1431 112 1544 192T1724 409T1792 712Q1792 878 1725 1014T1544 1231T1292 1312Q1154 1312 1040 1231T857 1014T788 712Q788 546 856 410T1039 193T1292 112Z"></glyph>
<glyph unicode="A" horiz-adv-x="1736" d="M160 0H92L824 2048H912L1644 0H1576L872 1968H864L160 0ZM392 756H1344V692H392V756Z"></glyph>
<glyph unicode="B" horiz-adv-x="1804" d="M320 0V2048H960Q1132 2048 1254 1986T1442 1807T1508 1528Q1508 1408 1472 1307T1365 1138T1196 1044V1036Q1307 1027 1396 959T1536 779T1588 524Q1588 366 1522 248T1330 65T1028 0H320ZM384 64H1028Q1253 64 1388
190T1524 524Q1524 666 1460 775T1285 946T1028 1008H384V64ZM384 1072H1028Q1168 1072 1260 1135T1398 1302T1444 1528Q1444 1746 1314 1865T960 1984H384V1072Z"></glyph>
<glyph unicode="C" horiz-adv-x="2036" d="M1836 1408H1768Q1749 1510 1694 1616T1548 1812T1333 1957T1052 2012Q842 2012 664 1898T377 1563T268 1024Q268 702 376 482T663 149T1052 36Q1209 36 1333 90T1548 234T1694 430T1768 640H1836Q1817 532 1760 416T1606
198T1371 35T1052 -28Q800 -28 609 104T311 473T204 1024Q204 1338 311 1575T609 1944T1052 2076Q1233 2076 1371 2014T1606 1852T1760 1635T1836 1408Z"></glyph>
<glyph unicode="D" horiz-adv-x="2012" d="M856 0H320V2048H908Q1191 2048 1392 1927T1701 1578T1808 1032Q1807 705 1695 475T1370 122T856 0ZM384 64H856Q1140 64 1339 179T1641 512T1744 1032Q1743 1331 1645 1544T1360 1870T908 1984H384V64Z"></glyph>
<glyph unicode="E" horiz-adv-x="1644" d="M320 0V2048H1412V1984H384V1056H1352V992H384V64H1440V0H320Z"></glyph>
<glyph unicode="F" horiz-adv-x="1648" d="M320 0V2048H1420V1984H384V1056H1324V992H384V0H320Z"></glyph>
<glyph unicode="G" horiz-adv-x="2080" d="M1772 1408Q1754 1513 1699 1619T1552 1815T1335 1958T1052 2012Q817 2012 641 1889T366 1543T268 1024Q268 732 365 509T640 161T1060 36Q1274 36 1440 137T1699 429T1788 888L1816 864H1080V928H1852V864Q1852 584
1750 385T1469 79T1060 -28Q800 -28 608 104T310 474T204 1024Q204 1260 264 1453T437 1786T706 2001T1052 2076Q1232 2076 1370 2014T1605 1852T1760 1635T1836 1408H1772Z"></glyph>
<glyph unicode="H" horiz-adv-x="2072" d="M320 0V2048H384V1056H1688V2048H1752V0H1688V992H384V0H320Z"></glyph>
<glyph unicode="I" horiz-adv-x="704" d="M384 2048V0H320V2048H384Z"></glyph>
<glyph unicode="J" horiz-adv-x="1464" d="M1080 2048H1144V544Q1143 336 1074 211T892 29T648 -28Q507 -28 395 26T217 173T152 384H216Q215 284 272 206T427 82T648 36Q760 36 858 84T1018 243T1080 544V2048Z"></glyph>
<glyph unicode="K" horiz-adv-x="1736" d="M320 0V2048H384V772H392L1552 2048H1640L736 1056L1628 0H1544L692 1008L384 668V0H320Z"></glyph>
<glyph unicode="L" horiz-adv-x="1584" d="M320 0V2048H384V64H1408V0H320Z"></glyph>
<glyph unicode="M" horiz-adv-x="2432" d="M320 2048H376L1212 96H1220L2056 2048H2112V0H2048V1848H2040L1248 0H1184L392 1848H384V0H320V2048Z"></glyph>
<glyph unicode="N" horiz-adv-x="2176" d="M1856 2048V0H1792L392 1928H384V0H320V2048H384L1784 120H1792V2048H1856Z"></glyph>
<glyph unicode="O" horiz-adv-x="2104" d="M1900 1024Q1900 711 1793 474T1495 105T1052 -28Q799 -28 608 105T311 475T204 1024Q204 1337 311 1573T609 1943T1052 2076Q1304 2076 1495 1944T1793 1574T1900 1024ZM1836 1024Q1836 1318 1737 1540T1462 1887T1052
2012Q820 2012 644 1889T368 1543T268 1024Q268 732 366 510T640 162T1052 36Q1285 36 1462 160T1738 507T1836 1024Z"></glyph>
<glyph unicode="P" horiz-adv-x="1708" d="M320 0V2048H920Q1092 2048 1224 1971T1432 1759T1508 1448Q1508 1274 1433 1140T1225 929T920 852H352V916H920Q1074 916 1192 984T1377 1172T1444 1448Q1444 1605 1377 1726T1192 1915T920 1984H384V0H320Z"></glyph>
<glyph unicode="Q" horiz-adv-x="2104" d="M1132 640H1212L1544 200L1556 184L1840 -192H1760L1500 152L1488 168L1132 640ZM1900 1024Q1900 711 1793 474T1495 105T1052 -28Q799 -28 608 105T311 475T204 1024Q204 1337 311 1573T609 1943T1052 2076Q1304 2076
1495 1944T1793 1574T1900 1024ZM1836 1024Q1836 1318 1737 1540T1462 1887T1052 2012Q820 2012 644 1889T368 1543T268 1024Q268 732 366 510T640 162T1052 36Q1285 36 1462 160T1738 507T1836 1024Z"></glyph>
<glyph unicode="R" horiz-adv-x="1732" d="M320 0V2048H920Q1092 2048 1224 1975T1432 1771T1508 1464Q1508 1290 1433 1160T1225 957T920 884H352V948H920Q1074 948 1192 1012T1377 1192T1444 1464Q1444 1621 1377 1738T1192 1919T920 1984H384V0H320ZM1100 932L1604
0H1532L1028 932H1100Z"></glyph>
<glyph unicode="S" horiz-adv-x="1724" d="M1416 1536Q1401 1746 1256 1881T872 2016Q716 2016 593 1956T399 1792T328 1552Q328 1474 354 1408T433 1288T568 1190T760 1112L992 1040Q1125 999 1222 948T1382 834T1477 693T1508 520Q1508 360 1426 235T1197 39T856
-32Q669 -32 529 33T308 214T216 480H280Q290 348 363 247T561 89T856 32Q1032 32 1164 93T1370 265T1444 520Q1444 630 1396 713T1245 861T976 976L744 1048Q503 1124 384 1249T264 1552Q264 1703 343 1822T559 2011T872 2080Q1048 2080 1181 2010T1392 1817T1480
1536H1416Z"></glyph>
<glyph unicode="T" horiz-adv-x="1728" d="M172 1984V2048H1556V1984H896V0H832V1984H172Z"></glyph>
<glyph unicode="U" horiz-adv-x="2112" d="M1728 2048H1792V692Q1792 484 1696 321T1433 63T1056 -32Q847 -32 680 63T416 321T320 692V2048H384V692Q384 502 471 353T711 118T1056 32Q1249 32 1401 118T1640 353T1728 692V2048Z"></glyph>
<glyph unicode="V" horiz-adv-x="1736" d="M160 2048L864 80H872L1576 2048H1644L912 0H824L92 2048H160Z"></glyph>
<glyph unicode="W" horiz-adv-x="2512" d="M644 0L80 2048H148L684 100H692L1212 2048H1300L1820 100H1828L2364 2048H2432L1868 0H1780L1260 1948H1252L732 0H644Z"></glyph>
<glyph unicode="X" horiz-adv-x="1648" d="M176 2048L820 1084H828L1472 2048H1552L864 1024L1552 0H1472L828 964H820L176 0H96L784 1024L96 2048H176Z"></glyph>
<glyph unicode="Y" horiz-adv-x="1728" d="M96 2048H176L860 1044H868L1552 2048H1632L896 972V0H832V972L96 2048Z"></glyph>
<glyph unicode="Z" horiz-adv-x="1704" d="M212 0V64L1416 1984H220V2048H1492V1984L288 64H1500V0H212Z"></glyph>
<glyph unicode="[" horiz-adv-x="888" d="M352 -416V2144H704V2080H416V-352H704V-416H352Z"></glyph>
<glyph unicode="\" horiz-adv-x="910" d="M750 -308L90 2144H158L818 -308H750Z"></glyph>
<glyph unicode="]" horiz-adv-x="888" d="M536 2144V-416H184V-352H472V2080H184V2144H536Z"></glyph>
<glyph unicode="^" horiz-adv-x="1128" d="M544 1944H584V1880H544V1944ZM132 1120L540 1984H588L996 1120H924L548 1920H580L204 1120H132Z"></glyph>
<glyph unicode="_" horiz-adv-x="1202" d="M1208 0V-64H-8V0H1208Z"></glyph>
<glyph unicode="`" horiz-adv-x="1400" d="M802 1760L506 2192H586L866 1760H802Z"></glyph>
<glyph unicode="a" horiz-adv-x="1524" d="M656 -32Q530 -32 424 20T253 172T188 416Q188 494 213 562T301 687T477 783T768 844Q874 856 968 872T1121 920T1180 1012V1104Q1180 1281 1061 1388T744 1496Q582 1496 461 1425T292 1224L232 1248Q268 1344 343 1414T521
1522T744 1560Q861 1560 953 1526T1111 1430T1210 1285T1244 1104V0H1180V312H1172Q1124 208 1048 131T872 11T656 -32ZM656 32Q802 32 921 110T1110 329T1180 656V888Q1152 867 1113 851T1024 823T916 801T792 784Q586 760 468 711T301 588T252 416Q252 242 368
137T656 32Z"></glyph>
<glyph unicode="b" horiz-adv-x="1684" d="M320 0V2048H384V1144H392Q432 1272 508 1365T687 1509T912 1560Q1092 1560 1225 1455T1431 1170T1504 764Q1504 537 1432 357T1227 73T912 -32Q789 -32 687 19T509 163T392 384H384V0H320ZM384 764Q384 556 448 391T630
129T912 32Q1075 32 1193 128T1376 390T1440 764Q1440 972 1376 1137T1193 1399T912 1496Q750 1496 632 1400T449 1138T384 764Z"></glyph>
<glyph unicode="c" horiz-adv-x="1556" d="M824 -32Q638 -32 493 72T264 357T180 764Q180 989 263 1169T491 1455T824 1560Q962 1560 1077 1501T1271 1335T1372 1088H1304Q1273 1269 1140 1382T824 1496Q659 1496 528 1401T320 1140T244 764Q244 560 317 394T522
130T824 32Q947 32 1050 83T1221 229T1308 448H1376Q1354 303 1276 195T1081 28T824 -32Z"></glyph>
<glyph unicode="d" horiz-adv-x="1684" d="M772 -32Q590 -32 457 72T252 357T180 764Q180 990 253 1170T459 1455T772 1560Q894 1560 997 1510T1176 1366T1292 1144H1300V2048H1364V0H1300V384H1292Q1250 257 1175 164T998 19T772 -32ZM772 32Q935 32 1053 128T1236
390T1300 764Q1300 972 1236 1137T1053 1399T772 1496Q610 1496 492 1400T309 1138T244 764Q244 556 308 391T490 129T772 32Z"></glyph>
<glyph unicode="e" horiz-adv-x="1624" d="M848 -32Q647 -32 497 73T263 358T180 764Q180 990 263 1170T491 1455T816 1560Q950 1560 1064 1503T1264 1345T1396 1113T1444 832V768H212V832H1380Q1380 1017 1304 1167T1100 1407T816 1496Q658 1496 530 1402T325
1146T244 780V772Q244 571 314 403T520 133T848 32Q990 32 1086 82T1241 197T1328 308L1380 272Q1346 214 1278 143T1104 20T848 -32Z"></glyph>
<glyph unicode="f" horiz-adv-x="932" d="M800 1536V1472H192V1536H800ZM404 0V1788Q404 1896 452 1975T581 2097T756 2140Q792 2140 821 2134T878 2118L858 2058Q833 2066 809 2071T756 2076Q641 2076 555 1999T468 1788L466 0H404Z"></glyph>
<glyph unicode="g" horiz-adv-x="1644" d="M792 -608Q663 -608 554 -574T366 -471T248 -300L308 -276Q343 -366 412 -425T579 -514T792 -544Q1032 -544 1166 -418T1300 -32V384H1292Q1252 256 1173 171T990 43T772 0Q592 0 459 97T253 366T180 764Q180 992 252
1172T457 1456T772 1560Q896 1560 998 1510T1175 1366T1292 1144H1300V1536H1364V-32Q1364 -221 1295 -349T1098 -543T792 -608ZM772 64Q932 64 1050 149T1234 391T1300 764Q1300 972 1236 1137T1054 1399T772 1496Q609 1496 491 1400T308 1138T244 764Q244 556
308 399T491 153T772 64Z"></glyph>
<glyph unicode="h" horiz-adv-x="1600" d="M336 1032V0H272V2048H336V1292H344Q398 1412 521 1484T804 1556Q958 1556 1076 1489T1261 1304T1328 1032V0H1264V1032Q1264 1236 1136 1364T804 1492Q668 1492 563 1433T397 1270T336 1032Z"></glyph>
<glyph unicode="i" horiz-adv-x="624" d="M280 0V1536H344V0H280ZM312 1816Q286 1816 267 1835T248 1880Q248 1906 267 1925T312 1944Q338 1944 357 1925T376 1880Q376 1854 357 1835T312 1816Z"></glyph>
<glyph unicode="j" horiz-adv-x="624" d="M280 1536H344V-224Q344 -332 295 -411T166 -533T-8 -576Q-14 -576 -21 -576T-40 -572L-32 -512Q-26 -512 -20 -512T-8 -512Q106 -512 193 -435T280 -224V1536ZM312 1816Q286 1816 267 1835T248 1880Q248 1906 267 1925T312
1944Q338 1944 357 1925T376 1880Q376 1854 357 1835T312 1816Z"></glyph>
<glyph unicode="k" horiz-adv-x="1372" d="M320 620V736H344L1160 1536H1252L552 848L544 840L320 620ZM272 0V2048H336V0H272ZM1192 0L520 848L568 888L1276 0H1192Z"></glyph>
<glyph unicode="l" horiz-adv-x="608" d="M336 2048V0H272V2048H336Z"></glyph>
<glyph unicode="m" horiz-adv-x="2352" d="M272 0V1536H336V1308H344Q386 1420 494 1488T756 1556Q930 1556 1033 1470T1176 1240H1184Q1222 1384 1338 1470T1628 1556Q1859 1556 1969 1410T2080 1032V0H2016V1032Q2016 1236 1924 1364T1628 1492Q1424 1492 1316
1363T1208 1032V0H1144V1032Q1144 1236 1052 1364T756 1492Q620 1492 527 1433T385 1270T336 1032V0H272Z"></glyph>
<glyph unicode="n" horiz-adv-x="1600" d="M336 1032V0H272V1536H336V1292H344Q398 1412 521 1484T804 1556Q958 1556 1076 1489T1261 1304T1328 1032V0H1264V1032Q1264 1236 1136 1364T804 1492Q668 1492 563 1433T397 1270T336 1032Z"></glyph>
<glyph unicode="o" horiz-adv-x="1632" d="M816 -32Q635 -32 491 72T264 357T180 764Q180 991 263 1171T491 1455T816 1560Q997 1560 1140 1455T1368 1170T1452 764Q1452 538 1369 358T1141 73T816 -32ZM816 32Q979 32 1108 128T1313 390T1388 764Q1388 972 1313
1137T1108 1399T816 1496Q654 1496 525 1400T320 1138T244 764Q244 556 319 390T523 128T816 32Z"></glyph>
<glyph unicode="p" horiz-adv-x="1636" d="M272 -576V1536H336V1144H344Q386 1272 461 1365T638 1509T864 1560Q1046 1560 1178 1456T1383 1171T1456 764Q1456 538 1383 358T1177 73T864 -32Q742 -32 639 18T460 162T344 384H336V-576H272ZM336 764Q336 556 400
391T583 129T864 32Q1026 32 1144 128T1327 390T1392 764Q1392 972 1328 1137T1146 1399T864 1496Q701 1496 583 1400T400 1138T336 764Z"></glyph>
<glyph unicode="q" horiz-adv-x="1636" d="M1300 -576V384H1292Q1252 256 1176 163T997 19T772 -32Q592 -32 459 73T253 358T180 764Q180 991 252 1171T458 1455T772 1560Q896 1560 998 1509T1175 1365T1292 1144H1300V1536H1364V-576H1300ZM772 32Q934 32 1052
128T1235 390T1300 764Q1300 972 1236 1137T1054 1399T772 1496Q609 1496 491 1400T308 1138T244 764Q244 556 308 391T491 129T772 32Z"></glyph>
<glyph unicode="r" horiz-adv-x="916" d="M272 0V1536H336V1292H344Q398 1412 521 1484T804 1556Q816 1556 820 1556T836 1556V1492Q824 1492 820 1492T804 1492Q668 1492 563 1433T397 1270T336 1032V0H272Z"></glyph>
<glyph unicode="s" horiz-adv-x="1388" d="M1192 1212L1128 1196Q1097 1296 1042 1362T906 1462T720 1496Q536 1496 422 1403T308 1156Q308 1035 385 953T620 832L860 772Q1029 730 1116 630T1204 388Q1204 263 1139 168T958 21T692 -32Q487 -32 357 68T188 352L252
368Q286 205 397 119T692 32Q892 32 1016 130T1140 388Q1140 507 1066 589T844 708L604 768Q427 812 336 912T244 1156Q244 1277 304 1367T472 1509T720 1560Q898 1560 1017 1473T1192 1212Z"></glyph>
<glyph unicode="t" horiz-adv-x="980" d="M752 1536V1472H144V1536H752ZM368 1904H432V324Q432 234 472 170T578 71T720 36Q749 36 773 41T824 56L844 -4Q814 -15 785 -21T720 -28Q626 -28 546 15T417 137T368 324V1904Z"></glyph>
<glyph unicode="u" horiz-adv-x="1600" d="M1264 504V1536H1328V0H1264V244H1256Q1202 124 1079 52T796 -20Q642 -20 524 47T339 232T272 504V1536H336V504Q336 300 464 172T796 44Q932 44 1037 103T1203 266T1264 504Z"></glyph>
<glyph unicode="v" horiz-adv-x="1472" d="M1328 1536L780 0H692L144 1536H212L732 80H740L1260 1536H1328Z"></glyph>
<glyph unicode="w" horiz-adv-x="2224" d="M600 0L144 1536H212L640 88H648L1080 1536H1144L1576 88H1584L2012 1536H2080L1624 0H1536L1116 1416H1108L688 0H600Z"></glyph>
<glyph unicode="x" horiz-adv-x="1408" d="M252 1536L704 826L1156 1536H1232L742 768L1232 0H1156L704 710L252 0H176L666 768L176 1536H252Z"></glyph>
<glyph unicode="y" horiz-adv-x="1472" d="M342 -576Q303 -576 259 -566T170 -536L194 -480Q293 -522 374 -511T518 -435T622 -256L704 -28L144 1536H212L732 80H740L1260 1536H1328L682 -280Q648 -376 597 -442T482 -542T342 -576Z"></glyph>
<glyph unicode="z" horiz-adv-x="1432" d="M216 0V64L1136 1464V1472H276V1536H1216V1472L296 72V64H1256V0H216Z"></glyph>
<glyph unicode="{" horiz-adv-x="888" d="M184 832V896Q357 897 418 958T480 1192V1716Q480 1825 502 1905T569 2039T682 2118T844 2144V2080Q740 2081 674 2043T576 1925T544 1716V1192Q544 1093 525 1025T464 914T353 852T184 832ZM844 -416Q751 -416 683 -390T569
-311T502 -178T480 12V536Q480 708 419 769T184 832V896Q284 895 353 876T464 814T525 704T544 536V12Q544 -116 575 -196T673 -314T844 -352V-416ZM184 832V896H400V832H184Z"></glyph>
<glyph unicode="|" horiz-adv-x="768" d="M416 2708V-660H352V2708H416Z"></glyph>
<glyph unicode="}" horiz-adv-x="888" d="M704 896V832Q531 831 470 770T408 536V12Q408 -97 386 -177T319 -311T206 -390T44 -416V-352Q149 -352 215 -315T312 -197T344 12V536Q344 635 363 703T424 814T535 876T704 896ZM44 2144Q137 2144 205 2118T319 2039T386
1906T408 1716V1192Q408 1020 469 959T704 896V832Q604 833 535 852T424 914T363 1024T344 1192V1716Q344 1844 313 1924T215 2043T44 2080V2144ZM704 896V832H488V896H704Z"></glyph>
<glyph unicode="~" horiz-adv-x="1792" d="M264 672Q276 753 325 815T452 913T624 948Q727 947 801 908T936 828Q995 788 1051 759T1180 728Q1285 727 1362 788T1464 944L1528 928Q1507 850 1457 791T1336 698T1180 664Q1092 665 1026 700T900 776Q839 817 776
850T624 884Q505 885 424 823T328 664L264 672Z"></glyph>
<glyph unicode="&#xa0;" horiz-adv-x="792"></glyph>
<glyph unicode="&#xa1;" horiz-adv-x="736" d="M400 -520H336V920H400V-520ZM368 1540Q398 1540 419 1519T440 1468Q440 1438 419 1417T368 1396Q338 1396 317 1417T296 1468Q296 1488 305 1504T331 1530T368 1540Z"></glyph>
<glyph unicode="&#xa2;" horiz-adv-x="1556" d="M786 0V2048H850V0H786ZM824 228Q638 228 493 332T264 617T180 1024Q180 1249 263 1429T491 1715T824 1820Q962 1820 1077 1761T1271 1595T1372 1348H1304Q1273 1529 1140 1642T824 1756Q659 1756 528 1661T320
1400T244 1024Q244 820 317 654T522 390T824 292Q947 292 1050 343T1221 489T1308 708H1376Q1354 563 1276 455T1081 288T824 228Z"></glyph>
<glyph unicode="&#xa3;" horiz-adv-x="1776" d="M1472 0H224V64H1472V0ZM1088 852H224V916H1088V852ZM560 1508L588 400Q593 235 537 127T352 4L328 64Q401 64 445 109T508 231T524 400L496 1508Q492 1675 558 1803T744 2003T1024 2076Q1140 2076 1237 2036T1402
1926T1499 1764T1508 1572L1444 1588Q1467 1701 1416 1798T1262 1954T1024 2012Q883 2012 777 1948T614 1771T560 1508Z"></glyph>
<glyph unicode="&#xa4;" horiz-adv-x="1918" d="M954 -28Q787 -28 643 37T390 221T221 496T160 836Q160 1019 220 1175T389 1449T642 1631T954 1696Q1124 1696 1269 1631T1522 1449T1691 1176T1752 836Q1752 653 1692 496T1523 221T1269 38T954 -28ZM954 36Q1109
36 1242 97T1475 266T1631 521T1688 836Q1689 1063 1592 1243T1327 1527T954 1632Q750 1632 585 1528T322 1243T224 836Q224 610 321 429T583 142T954 36ZM1526 1380L1484 1426L1724 1674L1766 1628L1526 1380ZM1724 0L1484 248L1526 294L1766 46L1724 0ZM186 0L144
46L384 294L426 248L186 0ZM384 1380L144 1628L186 1674L426 1426L384 1380Z"></glyph>
<glyph unicode="&#xa5;" horiz-adv-x="1472" d="M132 2048L768 884H696L60 2048H132ZM704 884L1340 2048H1412L776 884H704ZM768 952V0H704V952H768ZM1248 916V852H224V916H1248ZM1248 672V608H224V672H1248Z"></glyph>
<glyph unicode="&#xa6;" horiz-adv-x="525" d="M230 532H294V-384H230V532ZM294 2048V1136H230V2048H294Z"></glyph>
<glyph unicode="&#xa7;" horiz-adv-x="1492" d="M1192 1636H1128Q1119 1792 1021 1902T748 2012Q634 2012 549 1963T416 1831T368 1648Q368 1550 411 1485T525 1371T680 1272L848 1172Q931 1123 1012 1073T1160 967T1267 842T1308 684Q1308 594 1261 525T1133
416T956 376V372Q1118 264 1173 182T1228 0Q1228 -128 1166 -221T994 -365T744 -416Q604 -416 494 -360T318 -203T244 32H308Q320 -139 437 -245T744 -352Q921 -352 1042 -259T1164 0Q1164 66 1137 121T1037 236T828 376L656 476Q527 551 437 612T291 729T210 843T184
968Q184 1060 226 1134T345 1249T528 1284V1292Q423 1364 364 1446T304 1648Q304 1766 361 1863T518 2018T748 2076Q878 2076 975 2020T1128 1864T1192 1636ZM1244 684Q1244 782 1180 856T1019 992T824 1112L616 1236Q490 1244 409 1211T288 1116T248 976Q248 853
351 760T680 536L860 432Q960 424 1047 450T1189 535T1244 684Z"></glyph>
<glyph unicode="&#xa8;" horiz-adv-x="1856" d="M736 1816Q710 1816 691 1835T672 1880Q672 1906 691 1925T736 1944Q762 1944 781 1925T800 1880Q800 1854 781 1835T736 1816ZM1120 1816Q1094 1816 1075 1835T1056 1880Q1056 1906 1075 1925T1120 1944Q1146 1944
1165 1925T1184 1880Q1184 1854 1165 1835T1120 1816Z"></glyph>
<glyph unicode="&#xa9;" horiz-adv-x="2576" d="M722 1024Q722 1188 802 1323T1017 1538T1316 1618Q1434 1618 1532 1575T1702 1456T1812 1280H1740Q1688 1403 1577 1478T1316 1554Q1170 1554 1050 1483T858 1291T786 1024Q786 878 857 758T1049 566T1316 494Q1466
494 1577 569T1740 768H1812Q1774 668 1703 592T1533 473T1316 430Q1152 430 1017 510T802 725T722 1024ZM1288 -32Q1070 -32 879 50T542 277T314 614T232 1024Q233 1243 315 1434T543 1770T879 1998T1288 2080Q1507 2080 1698 1998T2034 1771T2261 1434T2344 1024Q2345
805 2263 614T2036 278T1699 50T1288 -32ZM1289 32Q1494 32 1674 109T1991 322T2204 639T2280 1024Q2279 1230 2202 1410T1989 1726T1674 1939T1288 2016Q1083 2016 904 1939T588 1726T375 1409T296 1024Q295 819 372 640T585 324T902 110T1289 32Z"></glyph>
<glyph unicode="&#xaa;" horiz-adv-x="1016" d="M774 1184V1652Q772 1817 712 1892T524 1968Q387 1968 312 1903T226 1710L162 1716Q168 1861 266 1946T524 2032Q685 2032 761 1940T838 1652V1220Q837 1147 845 1088T870 976H802Q786 1023 779 1077T774 1184ZM786
1548V1488H550Q381 1488 295 1427T210 1244Q209 1140 270 1079T438 1016Q498 1015 557 1032T672 1086T780 1174L804 1132Q701 1035 617 994T438 952Q305 952 225 1032T144 1244Q146 1393 249 1470T550 1548H786Z"></glyph>
<glyph unicode="&#xab;" horiz-adv-x="1480" d="M712 220H636L232 820V840H296L712 220ZM712 1448L296 828H232V848L636 1448H712ZM1224 220H1148L744 820V840H808L1224 220ZM1224 1448L808 828H744V848L1148 1448H1224Z"></glyph>
<glyph unicode="&#xac;" horiz-adv-x="1407" d="M1264 1108V1044H148V1108H1264ZM1264 1080V516H1200V1080H1264Z"></glyph>
<glyph unicode="&#xad;" horiz-adv-x="1236" d="M1000 910V846H236V910H1000Z"></glyph>
<glyph unicode="&#xae;" horiz-adv-x="1888" d="M690 916V1654H1006Q1082 1654 1134 1626T1214 1548T1242 1434Q1242 1370 1215 1320T1135 1240T1006 1210H724V1274H1004Q1091 1274 1134 1317T1178 1434Q1178 1508 1135 1549T1004 1590H754V916H690ZM1090 1248L1272
916H1198L1020 1248H1090ZM944 476Q778 476 633 538T378 710T206 965T144 1276Q144 1442 206 1587T378 1842T633 2014T944 2076Q1110 2076 1255 2014T1510 1842T1682 1587T1744 1276Q1744 1110 1682 965T1510 710T1255 538T944 476ZM944 540Q1148 540 1315 639T1581
905T1680 1276Q1680 1480 1581 1647T1315 1913T944 2012Q741 2012 574 1913T307 1647T208 1276Q208 1073 307 906T573 639T944 540Z"></glyph>
<glyph unicode="&#xaf;" horiz-adv-x="824" d="M732 1912V1848H92V1912H732Z"></glyph>
<glyph unicode="&#xb0;" horiz-adv-x="1280" d="M640 1244Q525 1244 431 1300T280 1450T224 1660Q224 1775 280 1869T430 2020T640 2076Q755 2076 849 2020T1000 1870T1056 1660Q1056 1545 1000 1451T850 1300T640 1244ZM640 1308Q738 1308 817 1355T944 1483T992
1660Q992 1758 945 1837T818 1964T640 2012Q543 2012 463 1965T336 1838T288 1660Q288 1563 335 1483T463 1356T640 1308Z"></glyph>
<glyph unicode="&#xb1;" horiz-adv-x="1792" d="M316 192V256H1476V192H316ZM316 960V1024H1476V960H316ZM864 448V1536H928V448H864Z"></glyph>
<glyph unicode="&#xb2;" horiz-adv-x="1160" d="M168 1024V1072L608 1532Q702 1630 758 1699T839 1826T864 1948Q864 2062 778 2137T560 2212Q422 2212 337 2131T252 1936H188Q188 2077 293 2172T560 2268Q666 2268 749 2226T880 2111T928 1948Q928 1880 903 1818T817
1678T648 1488L260 1088V1084H996V1024H168Z"></glyph>
<glyph unicode="&#xb3;" horiz-adv-x="1156" d="M584 1008Q466 1008 372 1050T223 1165T168 1332H232Q232 1215 334 1142T584 1068Q740 1068 838 1149T936 1348Q936 1471 827 1549T544 1628H508V1688H544Q691 1688 791 1758T892 1952Q892 2063 805 2137T580 2212Q445
2212 354 2138T260 1944H200Q200 2040 250 2113T386 2227T580 2268Q690 2268 775 2227T908 2114T956 1952Q956 1844 888 1768T708 1664V1656Q840 1629 918 1546T996 1348Q996 1252 943 1175T797 1053T584 1008Z"></glyph>
<glyph unicode="&#xb4;" horiz-adv-x="1400" d="M662 1760L942 2192H1022L726 1760H662Z"></glyph>
<glyph unicode="&#xb5;" horiz-adv-x="1588" d="M264 -596V1536H328V504Q328 370 388 266T554 103T796 44Q932 44 1037 103T1203 266T1264 504V1536H1328V0H1264V244H1256Q1202 124 1079 52T796 -20Q637 -20 514 52T336 244H328V-596H264Z"></glyph>
<glyph unicode="&#xb6;" horiz-adv-x="1560" d="M1240 1984H984V760H868Q650 760 499 843T270 1072T192 1404Q192 1588 270 1733T499 1963T868 2048H1240V1984ZM1176 0V2048H1240V0H1176Z"></glyph>
<glyph unicode="&#xb7;" horiz-adv-x="712" d="M356 824Q326 824 305 845T284 896Q284 926 305 947T356 968Q386 968 407 947T428 896Q428 876 419 860T393 834T356 824Z"></glyph>
<glyph unicode="&#xb8;" horiz-adv-x="576" d="M262 8H326L312 -72Q414 -88 466 -149T520 -304Q519 -410 451 -460T250 -516L248 -452Q360 -448 407 -413T456 -304Q455 -218 400 -174T234 -132L262 8Z"></glyph>
<glyph unicode="&#xb9;" horiz-adv-x="768" d="M424 1024V2184H412L126 1994V2070L400 2252H488V1024H424Z"></glyph>
<glyph unicode="&#xba;" horiz-adv-x="1100" d="M120 1438V1554Q120 1705 171 1812T319 1975T552 2032Q755 2032 867 1906T980 1554V1438Q980 1285 930 1178T783 1014T548 956Q346 955 233 1082T120 1438ZM180 1554V1438Q180 1241 278 1129T548 1016Q724 1015
822 1127T920 1438V1554Q920 1749 822 1860T552 1972Q377 1972 279 1861T180 1554Z"></glyph>
<glyph unicode="&#xbb;" horiz-adv-x="1500" d="M256 220L672 840H736V820L332 220H256ZM256 1448H332L736 848V828H672L256 1448ZM788 220L1204 840H1268V820L864 220H788ZM788 1448H864L1268 848V828H1204L788 1448Z"></glyph>
<glyph unicode="&#xbc;" horiz-adv-x="2210" d="M316 0L1720 2048H1796L392 0H316ZM380 1216V2236H368L82 2046V2122L356 2304H444V1216H380ZM1306 244V296L1866 1088H1902V988H1866L1386 308V304H2090V244H1306ZM1874 0V264V284V1088H1934V0H1874Z"></glyph>
<glyph unicode="&#xbd;" horiz-adv-x="2420" d="M316 0L1720 2048H1796L392 0H316ZM380 1216V2236H368L82 2046V2122L356 2304H444V1216H380ZM1528 0V48L1924 456Q2056 591 2106 664T2156 816Q2156 915 2079 979T1884 1044Q1761 1044 1685 976T1608 808H1544Q1544
934 1640 1019T1884 1104Q2025 1104 2120 1022T2216 816Q2216 756 2193 701T2115 578T1964 412L1620 64V60H2276V0H1528Z"></glyph>
<glyph unicode="&#xbe;" horiz-adv-x="2534" d="M640 0L2044 2048H2120L716 0H640ZM1630 244V296L2190 1088H2226V988H2190L1710 308V304H2414V244H1630ZM2198 0V264V284V1088H2258V0H2198ZM528 1200Q422 1200 337 1237T202 1339T152 1488H216Q216 1386 306 1323T528
1260Q669 1260 756 1331T844 1504Q844 1612 747 1680T496 1748H460V1804H496Q628 1804 716 1867T804 2036Q804 2132 728 2196T528 2260Q405 2260 325 2197T244 2032H180Q180 2116 226 2181T351 2283T528 2320Q626 2320 703 2283T824 2181T868 2036Q868 1943 807
1875T644 1780V1776Q764 1752 834 1679T904 1504Q904 1418 856 1349T723 1240T528 1200Z"></glyph>
<glyph unicode="&#xbf;" horiz-adv-x="1348" d="M764 940V800Q764 708 739 637T655 502T492 364Q391 293 332 231T249 107T224 -28Q224 -155 284 -253T448 -408T680 -464Q816 -464 922 -402T1090 -232T1152 12H1216Q1216 -142 1146 -264T955 -457T680 -528Q534
-528 416 -463T229 -285T160 -28Q160 57 188 128T282 268T456 416Q552 485 605 541T679 658T700 800V940H764ZM732 1560Q762 1560 783 1539T804 1488Q804 1458 783 1437T732 1416Q702 1416 681 1437T660 1488Q660 1508 669 1524T695 1550T732 1560Z"></glyph>
<glyph unicode="&#xc0;" horiz-adv-x="1736" d="M160 0H92L824 2048H912L1644 0H1576L872 1968H864L160 0ZM392 756H1344V692H392V756ZM838 2272L542 2704H622L902 2272H838Z"></glyph>
<glyph unicode="&#xc1;" horiz-adv-x="1736" d="M160 0H92L824 2048H912L1644 0H1576L872 1968H864L160 0ZM392 756H1344V692H392V756ZM834 2272L1114 2704H1194L898 2272H834Z"></glyph>
<glyph unicode="&#xc2;" horiz-adv-x="1736" d="M160 0H92L824 2048H912L1644 0H1576L872 1968H864L160 0ZM392 756H1344V692H392V756ZM1168 2208L868 2516L568 2208H492V2216L860 2592H876L1244 2216V2208H1168Z"></glyph>
<glyph unicode="&#xc3;" horiz-adv-x="1736" d="M160 0H92L824 2048H912L1644 0H1576L872 1968H864L160 0ZM392 756H1344V692H392V756ZM474 2344L410 2352Q424 2446 498 2505T674 2564Q743 2564 793 2539T884 2482T968 2425T1066 2400Q1134 2400 1192 2443T1266
2556L1330 2540Q1308 2449 1233 2393T1066 2336Q1002 2336 956 2361T870 2418T784 2475T674 2500Q596 2500 540 2456T474 2344Z"></glyph>
<glyph unicode="&#xc4;" horiz-adv-x="1736" d="M160 0H92L824 2048H912L1644 0H1576L872 1968H864L160 0ZM392 756H1344V692H392V756ZM676 2328Q650 2328 631 2347T612 2392Q612 2418 631 2437T676 2456Q702 2456 721 2437T740 2392Q740 2366 721 2347T676 2328ZM1060
2328Q1034 2328 1015 2347T996 2392Q996 2418 1015 2437T1060 2456Q1086 2456 1105 2437T1124 2392Q1124 2366 1105 2347T1060 2328Z"></glyph>
<glyph unicode="&#xc5;" horiz-adv-x="1736" d="M160 0H92L824 2048H912L1644 0H1576L872 1968H864L160 0ZM392 756H1344V692H392V756ZM868 2148Q773 2148 707 2214T640 2376Q640 2440 670 2491T753 2573T868 2604Q932 2604 983 2574T1065 2492T1096 2377Q1096
2313 1066 2261T984 2179T868 2148ZM869 2212Q937 2212 984 2260T1032 2376Q1032 2445 984 2492T868 2540Q799 2540 752 2492T704 2376Q704 2307 752 2260T869 2212Z"></glyph>
<glyph unicode="&#xc6;" horiz-adv-x="2700" d="M92 0L1136 2048H2468V1984H1440V1056H2408V992H1440V64H2496V0H1376V1984H1176L164 0H92ZM492 692V756H1412V692H492Z"></glyph>
<glyph unicode="&#xc7;" horiz-adv-x="2036" d="M1836 1408H1768Q1749 1510 1694 1616T1548 1812T1333 1957T1052 2012Q842 2012 664 1898T377 1563T268 1024Q268 702 376 482T663 149T1052 36Q1209 36 1333 90T1548 234T1694 430T1768 640H1836Q1817 532 1760
416T1606 198T1371 35T1052 -28Q800 -28 609 104T311 473T204 1024Q204 1338 311 1575T609 1944T1052 2076Q1233 2076 1371 2014T1606 1852T1760 1635T1836 1408ZM1020 8H1084L1070 -72Q1172 -88 1224 -149T1278 -304Q1277 -410 1209 -460T1008 -516L1006 -452Q1118
-448 1165 -413T1214 -304Q1213 -218 1158 -174T992 -132L1020 8Z"></glyph>
<glyph unicode="&#xc8;" horiz-adv-x="1644" d="M320 0V2048H1412V1984H384V1056H1352V992H384V64H1440V0H320ZM842 2272L546 2704H626L906 2272H842Z"></glyph>
<glyph unicode="&#xc9;" horiz-adv-x="1644" d="M320 0V2048H1412V1984H384V1056H1352V992H384V64H1440V0H320ZM838 2272L1118 2704H1198L902 2272H838Z"></glyph>
<glyph unicode="&#xca;" horiz-adv-x="1644" d="M320 0V2048H1412V1984H384V1056H1352V992H384V64H1440V0H320ZM1172 2208L872 2516L572 2208H496V2216L864 2592H880L1248 2216V2208H1172Z"></glyph>
<glyph unicode="&#xcb;" horiz-adv-x="1644" d="M320 0V2048H1412V1984H384V1056H1352V992H384V64H1440V0H320ZM936 2328Q910 2328 891 2347T872 2392Q872 2418 891 2437T936 2456Q962 2456 981 2437T1000 2392Q1000 2366 981 2347T936 2328ZM1320 2328Q1294 2328
1275 2347T1256 2392Q1256 2418 1275 2437T1320 2456Q1346 2456 1365 2437T1384 2392Q1384 2366 1365 2347T1320 2328Z"></glyph>
<glyph unicode="&#xcc;" horiz-adv-x="704" d="M384 2048V0H320V2048H384ZM322 2272L26 2704H106L386 2272H322Z"></glyph>
<glyph unicode="&#xcd;" horiz-adv-x="704" d="M384 2048V0H320V2048H384ZM318 2272L598 2704H678L382 2272H318Z"></glyph>
<glyph unicode="&#xce;" horiz-adv-x="704" d="M384 2048V0H320V2048H384ZM652 2208L352 2516L52 2208H-24V2216L344 2592H360L728 2216V2208H652Z"></glyph>
<glyph unicode="&#xcf;" horiz-adv-x="704" d="M384 2048V0H320V2048H384ZM160 2328Q134 2328 115 2347T96 2392Q96 2418 115 2437T160 2456Q186 2456 205 2437T224 2392Q224 2366 205 2347T160 2328ZM544 2328Q518 2328 499 2347T480 2392Q480 2418 499 2437T544
2456Q570 2456 589 2437T608 2392Q608 2366 589 2347T544 2328Z"></glyph>
<glyph unicode="&#xd0;" horiz-adv-x="2012" d="M856 0H352V64H856Q1140 64 1339 179T1641 512T1744 1032Q1743 1331 1645 1544T1360 1870T908 1984H352V2048H908Q1191 2048 1392 1927T1701 1578T1808 1032Q1807 705 1695 475T1370 122T856 0ZM384 2048V0H320V2048H384ZM-28
1008V1072H732V1008H-28Z"></glyph>
<glyph unicode="&#xd1;" horiz-adv-x="2176" d="M1856 2048V0H1792L392 1928H384V0H320V2048H384L1784 120H1792V2048H1856ZM692 2316L628 2324Q642 2418 716 2477T892 2536Q961 2536 1011 2511T1102 2454T1186 2397T1284 2372Q1352 2372 1410 2415T1484 2528L1548
2512Q1526 2421 1451 2365T1284 2308Q1220 2308 1174 2333T1088 2390T1002 2447T892 2472Q814 2472 758 2428T692 2316Z"></glyph>
<glyph unicode="&#xd2;" horiz-adv-x="2104" d="M1900 1024Q1900 711 1793 474T1495 105T1052 -28Q799 -28 608 105T311 475T204 1024Q204 1337 311 1573T609 1943T1052 2076Q1304 2076 1495 1944T1793 1574T1900 1024ZM1836 1024Q1836 1318 1737 1540T1462 1887T1052
2012Q820 2012 644 1889T368 1543T268 1024Q268 732 366 510T640 162T1052 36Q1285 36 1462 160T1738 507T1836 1024ZM1022 2272L726 2704H806L1086 2272H1022Z"></glyph>
<glyph unicode="&#xd3;" horiz-adv-x="2104" d="M1900 1024Q1900 711 1793 474T1495 105T1052 -28Q799 -28 608 105T311 475T204 1024Q204 1337 311 1573T609 1943T1052 2076Q1304 2076 1495 1944T1793 1574T1900 1024ZM1836 1024Q1836 1318 1737 1540T1462 1887T1052
2012Q820 2012 644 1889T368 1543T268 1024Q268 732 366 510T640 162T1052 36Q1285 36 1462 160T1738 507T1836 1024ZM1018 2272L1298 2704H1378L1082 2272H1018Z"></glyph>
<glyph unicode="&#xd4;" horiz-adv-x="2104" d="M1900 1024Q1900 711 1793 474T1495 105T1052 -28Q799 -28 608 105T311 475T204 1024Q204 1337 311 1573T609 1943T1052 2076Q1304 2076 1495 1944T1793 1574T1900 1024ZM1836 1024Q1836 1318 1737 1540T1462 1887T1052
2012Q820 2012 644 1889T368 1543T268 1024Q268 732 366 510T640 162T1052 36Q1285 36 1462 160T1738 507T1836 1024ZM1352 2208L1052 2516L752 2208H676V2216L1044 2592H1060L1428 2216V2208H1352Z"></glyph>
<glyph unicode="&#xd5;" horiz-adv-x="2104" d="M1900 1024Q1900 711 1793 474T1495 105T1052 -28Q799 -28 608 105T311 475T204 1024Q204 1337 311 1573T609 1943T1052 2076Q1304 2076 1495 1944T1793 1574T1900 1024ZM1836 1024Q1836 1318 1737 1540T1462 1887T1052
2012Q820 2012 644 1889T368 1543T268 1024Q268 732 366 510T640 162T1052 36Q1285 36 1462 160T1738 507T1836 1024ZM658 2344L594 2352Q608 2446 682 2505T858 2564Q927 2564 977 2539T1068 2482T1152 2425T1250 2400Q1318 2400 1376 2443T1450 2556L1514 2540Q1492
2449 1417 2393T1250 2336Q1186 2336 1140 2361T1054 2418T968 2475T858 2500Q780 2500 724 2456T658 2344Z"></glyph>
<glyph unicode="&#xd6;" horiz-adv-x="2104" d="M1900 1024Q1900 711 1793 474T1495 105T1052 -28Q799 -28 608 105T311 475T204 1024Q204 1337 311 1573T609 1943T1052 2076Q1304 2076 1495 1944T1793 1574T1900 1024ZM1836 1024Q1836 1318 1737 1540T1462 1887T1052
2012Q820 2012 644 1889T368 1543T268 1024Q268 732 366 510T640 162T1052 36Q1285 36 1462 160T1738 507T1836 1024ZM860 2328Q834 2328 815 2347T796 2392Q796 2418 815 2437T860 2456Q886 2456 905 2437T924 2392Q924 2366 905 2347T860 2328ZM1244 2328Q1218
2328 1199 2347T1180 2392Q1180 2418 1199 2437T1244 2456Q1270 2456 1289 2437T1308 2392Q1308 2366 1289 2347T1244 2328Z"></glyph>
<glyph unicode="&#xd7;" horiz-adv-x="1792" d="M1437 213L309 1341L355 1387L1483 259L1437 213ZM355 213L309 259L1437 1387L1483 1341L355 213Z"></glyph>
<glyph unicode="&#xd8;" horiz-adv-x="2104" d="M388 -48L336 -12L1716 2096L1768 2060L388 -48ZM1900 1024Q1900 711 1793 474T1495 105T1052 -28Q799 -28 608 105T311 475T204 1024Q204 1337 311 1573T609 1943T1052 2076Q1304 2076 1495 1944T1793 1574T1900
1024ZM1836 1024Q1836 1318 1737 1540T1462 1887T1052 2012Q820 2012 644 1889T368 1543T268 1024Q268 732 366 510T640 162T1052 36Q1285 36 1462 160T1738 507T1836 1024Z"></glyph>
<glyph unicode="&#xd9;" horiz-adv-x="2112" d="M1728 2048H1792V692Q1792 484 1696 321T1433 63T1056 -32Q847 -32 680 63T416 321T320 692V2048H384V692Q384 502 471 353T711 118T1056 32Q1249 32 1401 118T1640 353T1728 692V2048ZM1026 2272L730 2704H810L1090
2272H1026Z"></glyph>
<glyph unicode="&#xda;" horiz-adv-x="2112" d="M1728 2048H1792V692Q1792 484 1696 321T1433 63T1056 -32Q847 -32 680 63T416 321T320 692V2048H384V692Q384 502 471 353T711 118T1056 32Q1249 32 1401 118T1640 353T1728 692V2048ZM1022 2272L1302 2704H1382L1086
2272H1022Z"></glyph>
<glyph unicode="&#xdb;" horiz-adv-x="2112" d="M1728 2048H1792V692Q1792 484 1696 321T1433 63T1056 -32Q847 -32 680 63T416 321T320 692V2048H384V692Q384 502 471 353T711 118T1056 32Q1249 32 1401 118T1640 353T1728 692V2048ZM1356 2208L1056 2516L756
2208H680V2216L1048 2592H1064L1432 2216V2208H1356Z"></glyph>
<glyph unicode="&#xdc;" horiz-adv-x="2112" d="M1728 2048H1792V692Q1792 484 1696 321T1433 63T1056 -32Q847 -32 680 63T416 321T320 692V2048H384V692Q384 502 471 353T711 118T1056 32Q1249 32 1401 118T1640 353T1728 692V2048ZM864 2328Q838 2328 819 2347T800
2392Q800 2418 819 2437T864 2456Q890 2456 909 2437T928 2392Q928 2366 909 2347T864 2328ZM1248 2328Q1222 2328 1203 2347T1184 2392Q1184 2418 1203 2437T1248 2456Q1274 2456 1293 2437T1312 2392Q1312 2366 1293 2347T1248 2328Z"></glyph>
<glyph unicode="&#xdd;" horiz-adv-x="1728" d="M96 2048H176L860 1044H868L1552 2048H1632L896 972V0H832V972L96 2048ZM830 2272L1110 2704H1190L894 2272H830Z"></glyph>
<glyph unicode="&#xde;" horiz-adv-x="1663" d="M292 2048H352V0H292V2048ZM324 1556H844Q1027 1556 1161 1492T1367 1309T1440 1028Q1440 862 1369 743T1165 561T844 498H324V562H844Q1013 562 1131 616T1312 773T1376 1024Q1375 1171 1312 1276T1129 1436T844
1492H324V1556Z"></glyph>
<glyph unicode="&#xdf;" horiz-adv-x="1618" d="M320 0V1540Q320 1703 383 1823T560 2010T826 2076Q971 2076 1080 2015T1249 1842T1308 1584Q1307 1396 1207 1259T924 1066V1058Q1160 1006 1281 874T1402 536Q1402 374 1329 254T1123 67T808 0H668V64H824Q978
64 1094 122T1275 284T1340 524Q1340 754 1169 889T706 1024H676V1088H708Q870 1088 990 1151T1177 1327T1244 1584Q1244 1782 1130 1897T828 2012Q622 2014 503 1884T384 1524V0H320Z"></glyph>
<glyph unicode="&#xe0;" horiz-adv-x="1524" d="M656 -32Q530 -32 424 20T253 172T188 416Q188 494 213 562T301 687T477 783T768 844Q874 856 968 872T1121 920T1180 1012V1104Q1180 1281 1061 1388T744 1496Q582 1496 461 1425T292 1224L232 1248Q268 1344 343
1414T521 1522T744 1560Q861 1560 953 1526T1111 1430T1210 1285T1244 1104V0H1180V312H1172Q1124 208 1048 131T872 11T656 -32ZM656 32Q802 32 921 110T1110 329T1180 656V888Q1152 867 1113 851T1024 823T916 801T792 784Q586 760 468 711T301 588T252 416Q252
242 368 137T656 32ZM986 1760L690 2192H770L1050 1760H986Z"></glyph>
<glyph unicode="&#xe1;" horiz-adv-x="1524" d="M656 -32Q530 -32 424 20T253 172T188 416Q188 494 213 562T301 687T477 783T768 844Q874 856 968 872T1121 920T1180 1012V1104Q1180 1281 1061 1388T744 1496Q582 1496 461 1425T292 1224L232 1248Q268 1344 343
1414T521 1522T744 1560Q861 1560 953 1526T1111 1430T1210 1285T1244 1104V0H1180V312H1172Q1124 208 1048 131T872 11T656 -32ZM656 32Q802 32 921 110T1110 329T1180 656V888Q1152 867 1113 851T1024 823T916 801T792 784Q586 760 468 711T301 588T252 416Q252
242 368 137T656 32ZM726 1760L1006 2192H1086L790 1760H726Z"></glyph>
<glyph unicode="&#xe2;" horiz-adv-x="1524" d="M656 -32Q530 -32 424 20T253 172T188 416Q188 494 213 562T301 687T477 783T768 844Q874 856 968 872T1121 920T1180 1012V1104Q1180 1281 1061 1388T744 1496Q582 1496 461 1425T292 1224L232 1248Q268 1344 343
1414T521 1522T744 1560Q861 1560 953 1526T1111 1430T1210 1285T1244 1104V0H1180V312H1172Q1124 208 1048 131T872 11T656 -32ZM656 32Q802 32 921 110T1110 329T1180 656V888Q1152 867 1113 851T1024 823T916 801T792 784Q586 760 468 711T301 588T252 416Q252
242 368 137T656 32ZM1060 1696L760 2004L460 1696H384V1704L752 2080H768L1136 1704V1696H1060Z"></glyph>
<glyph unicode="&#xe3;" horiz-adv-x="1524" d="M656 -32Q530 -32 424 20T253 172T188 416Q188 494 213 562T301 687T477 783T768 844Q874 856 968 872T1121 920T1180 1012V1104Q1180 1281 1061 1388T744 1496Q582 1496 461 1425T292 1224L232 1248Q268 1344 343
1414T521 1522T744 1560Q861 1560 953 1526T1111 1430T1210 1285T1244 1104V0H1180V312H1172Q1124 208 1048 131T872 11T656 -32ZM656 32Q802 32 921 110T1110 329T1180 656V888Q1152 867 1113 851T1024 823T916 801T792 784Q586 760 468 711T301 588T252 416Q252
242 368 137T656 32ZM364 1804L300 1812Q314 1906 388 1965T564 2024Q633 2024 683 1999T774 1942T858 1885T956 1860Q1024 1860 1082 1903T1156 2016L1220 2000Q1198 1909 1123 1853T956 1796Q892 1796 846 1821T760 1878T674 1935T564 1960Q486 1960 430 1916T364
1804Z"></glyph>
<glyph unicode="&#xe4;" horiz-adv-x="1524" d="M656 -32Q530 -32 424 20T253 172T188 416Q188 494 213 562T301 687T477 783T768 844Q874 856 968 872T1121 920T1180 1012V1104Q1180 1281 1061 1388T744 1496Q582 1496 461 1425T292 1224L232 1248Q268 1344 343
1414T521 1522T744 1560Q861 1560 953 1526T1111 1430T1210 1285T1244 1104V0H1180V312H1172Q1124 208 1048 131T872 11T656 -32ZM656 32Q802 32 921 110T1110 329T1180 656V888Q1152 867 1113 851T1024 823T916 801T792 784Q586 760 468 711T301 588T252 416Q252
242 368 137T656 32ZM568 1816Q542 1816 523 1835T504 1880Q504 1906 523 1925T568 1944Q594 1944 613 1925T632 1880Q632 1854 613 1835T568 1816ZM952 1816Q926 1816 907 1835T888 1880Q888 1906 907 1925T952 1944Q978 1944 997 1925T1016 1880Q1016 1854 997
1835T952 1816Z"></glyph>
<glyph unicode="&#xe5;" horiz-adv-x="1524" d="M656 -32Q530 -32 424 20T253 172T188 416Q188 494 213 562T301 687T477 783T768 844Q874 856 968 872T1121 920T1180 1012V1104Q1180 1281 1061 1388T744 1496Q582 1496 461 1425T292 1224L232 1248Q268 1344 343
1414T521 1522T744 1560Q861 1560 953 1526T1111 1430T1210 1285T1244 1104V0H1180V312H1172Q1124 208 1048 131T872 11T656 -32ZM656 32Q802 32 921 110T1110 329T1180 656V888Q1152 867 1113 851T1024 823T916 801T792 784Q586 760 468 711T301 588T252 416Q252
242 368 137T656 32ZM760 1728Q697 1728 645 1758T563 1841T532 1956Q532 2020 562 2071T645 2153T760 2184Q824 2184 875 2154T957 2072T988 1956Q988 1893 958 1841T876 1759T760 1728ZM760 1792Q829 1792 876 1840T924 1956Q924 2025 876 2072T760 2120Q691
2120 644 2072T596 1956Q596 1887 644 1840T760 1792Z"></glyph>
<glyph unicode="&#xe6;" horiz-adv-x="2596" d="M1820 -32Q1589 -32 1427 104T1196 460L1216 1124Q1292 1321 1443 1440T1788 1560Q1922 1560 2036 1503T2235 1345T2368 1113T2416 832V768H1196V832H2352Q2352 1016 2276 1166T2072 1406T1788 1496Q1630 1496 1502
1402T1297 1146T1216 780V772Q1216 570 1286 402T1491 133T1820 32Q1962 32 2058 82T2213 197T2300 308L2352 272Q2318 214 2251 143T2077 20T1820 -32ZM656 32Q802 32 921 110T1110 329T1180 656V888Q1152 867 1113 851T1024 823T916 801T792 784Q586 760 468
711T301 588T252 416Q252 242 368 137T656 32ZM656 -32Q530 -32 424 20T253 172T188 416Q188 494 213 562T301 687T477 783T768 844Q874 856 968 872T1121 920T1180 1012V1104Q1180 1281 1061 1388T744 1496Q582 1496 461 1425T292 1224L232 1248Q268 1344 343
1414T521 1522T744 1560Q861 1560 953 1526T1111 1430T1210 1285T1244 1104V480H1232Q1186 296 1094 184T887 20T656 -32Z"></glyph>
<glyph unicode="&#xe7;" horiz-adv-x="1556" d="M824 -32Q638 -32 493 72T264 357T180 764Q180 989 263 1169T491 1455T824 1560Q962 1560 1077 1501T1271 1335T1372 1088H1304Q1273 1269 1140 1382T824 1496Q659 1496 528 1401T320 1140T244 764Q244 560 317
394T522 130T824 32Q947 32 1050 83T1221 229T1308 448H1376Q1354 303 1276 195T1081 28T824 -32ZM776 8H840L826 -72Q928 -88 980 -149T1034 -304Q1033 -410 965 -460T764 -516L762 -452Q874 -448 921 -413T970 -304Q969 -218 914 -174T748 -132L776 8Z"></glyph>
<glyph unicode="&#xe8;" horiz-adv-x="1624" d="M848 -32Q647 -32 497 73T263 358T180 764Q180 990 263 1170T491 1455T816 1560Q950 1560 1064 1503T1264 1345T1396 1113T1444 832V768H212V832H1380Q1380 1017 1304 1167T1100 1407T816 1496Q658 1496 530 1402T325
1146T244 780V772Q244 571 314 403T520 133T848 32Q990 32 1086 82T1241 197T1328 308L1380 272Q1346 214 1278 143T1104 20T848 -32ZM1038 1760L742 2192H822L1102 1760H1038Z"></glyph>
<glyph unicode="&#xe9;" horiz-adv-x="1624" d="M848 -32Q647 -32 497 73T263 358T180 764Q180 990 263 1170T491 1455T816 1560Q950 1560 1064 1503T1264 1345T1396 1113T1444 832V768H212V832H1380Q1380 1017 1304 1167T1100 1407T816 1496Q658 1496 530 1402T325
1146T244 780V772Q244 571 314 403T520 133T848 32Q990 32 1086 82T1241 197T1328 308L1380 272Q1346 214 1278 143T1104 20T848 -32ZM778 1760L1058 2192H1138L842 1760H778Z"></glyph>
<glyph unicode="&#xea;" horiz-adv-x="1624" d="M848 -32Q647 -32 497 73T263 358T180 764Q180 990 263 1170T491 1455T816 1560Q950 1560 1064 1503T1264 1345T1396 1113T1444 832V768H212V832H1380Q1380 1017 1304 1167T1100 1407T816 1496Q658 1496 530 1402T325
1146T244 780V772Q244 571 314 403T520 133T848 32Q990 32 1086 82T1241 197T1328 308L1380 272Q1346 214 1278 143T1104 20T848 -32ZM1112 1696L812 2004L512 1696H436V1704L804 2080H820L1188 1704V1696H1112Z"></glyph>
<glyph unicode="&#xeb;" horiz-adv-x="1624" d="M848 -32Q647 -32 497 73T263 358T180 764Q180 990 263 1170T491 1455T816 1560Q950 1560 1064 1503T1264 1345T1396 1113T1444 832V768H212V832H1380Q1380 1017 1304 1167T1100 1407T816 1496Q658 1496 530 1402T325
1146T244 780V772Q244 571 314 403T520 133T848 32Q990 32 1086 82T1241 197T1328 308L1380 272Q1346 214 1278 143T1104 20T848 -32ZM620 1816Q594 1816 575 1835T556 1880Q556 1906 575 1925T620 1944Q646 1944 665 1925T684 1880Q684 1854 665 1835T620 1816ZM1004
1816Q978 1816 959 1835T940 1880Q940 1906 959 1925T1004 1944Q1030 1944 1049 1925T1068 1880Q1068 1854 1049 1835T1004 1816Z"></glyph>
<glyph unicode="&#xec;" horiz-adv-x="624" d="M280 0V1536H344V0H280ZM282 1760L-14 2192H66L346 1760H282Z"></glyph>
<glyph unicode="&#xed;" horiz-adv-x="624" d="M280 0V1536H344V0H280ZM278 1760L558 2192H638L342 1760H278Z"></glyph>
<glyph unicode="&#xee;" horiz-adv-x="624" d="M280 0V1536H344V0H280ZM612 1696L312 2004L12 1696H-64V1704L304 2080H320L688 1704V1696H612Z"></glyph>
<glyph unicode="&#xef;" horiz-adv-x="624" d="M280 0V1536H344V0H280ZM120 1816Q94 1816 75 1835T56 1880Q56 1906 75 1925T120 1944Q146 1944 165 1925T184 1880Q184 1854 165 1835T120 1816ZM504 1816Q478 1816 459 1835T440 1880Q440 1906 459 1925T504 1944Q530
1944 549 1925T568 1880Q568 1854 549 1835T504 1816Z"></glyph>
<glyph unicode="&#xf0;" horiz-adv-x="1670" d="M1348 2010L564 1654L548 1716L1332 2072L1348 2010ZM836 -32Q652 -32 504 67T268 335T180 714Q180 924 267 1093T503 1361T836 1460Q951 1460 1049 1423T1229 1312T1372 1128H1382Q1318 1334 1204 1517T931 1851T570
2112L590 2176Q798 2065 964 1909T1247 1566T1427 1173T1490 754Q1491 515 1404 338T1169 65T836 -32ZM836 32Q1002 32 1136 122T1349 368T1428 714Q1428 905 1349 1059T1136 1305T836 1396Q671 1396 537 1305T324 1060T244 714Q244 523 323 368T536 123T836 32Z"></glyph>
<glyph unicode="&#xf1;" horiz-adv-x="1600" d="M336 1032V0H272V1536H336V1292H344Q398 1412 521 1484T804 1556Q958 1556 1076 1489T1261 1304T1328 1032V0H1264V1032Q1264 1236 1136 1364T804 1492Q668 1492 563 1433T397 1270T336 1032ZM408 1804L344 1812Q358
1906 432 1965T608 2024Q677 2024 727 1999T818 1942T902 1885T1000 1860Q1068 1860 1126 1903T1200 2016L1264 2000Q1242 1909 1167 1853T1000 1796Q936 1796 890 1821T804 1878T718 1935T608 1960Q530 1960 474 1916T408 1804Z"></glyph>
<glyph unicode="&#xf2;" horiz-adv-x="1632" d="M816 -32Q635 -32 491 72T264 357T180 764Q180 991 263 1171T491 1455T816 1560Q997 1560 1140 1455T1368 1170T1452 764Q1452 538 1369 358T1141 73T816 -32ZM816 32Q979 32 1108 128T1313 390T1388 764Q1388 972
1313 1137T1108 1399T816 1496Q654 1496 525 1400T320 1138T244 764Q244 556 319 390T523 128T816 32ZM1042 1760L746 2192H826L1106 1760H1042Z"></glyph>
<glyph unicode="&#xf3;" horiz-adv-x="1632" d="M816 -32Q635 -32 491 72T264 357T180 764Q180 991 263 1171T491 1455T816 1560Q997 1560 1140 1455T1368 1170T1452 764Q1452 538 1369 358T1141 73T816 -32ZM816 32Q979 32 1108 128T1313 390T1388 764Q1388 972
1313 1137T1108 1399T816 1496Q654 1496 525 1400T320 1138T244 764Q244 556 319 390T523 128T816 32ZM782 1760L1062 2192H1142L846 1760H782Z"></glyph>
<glyph unicode="&#xf4;" horiz-adv-x="1632" d="M816 -32Q635 -32 491 72T264 357T180 764Q180 991 263 1171T491 1455T816 1560Q997 1560 1140 1455T1368 1170T1452 764Q1452 538 1369 358T1141 73T816 -32ZM816 32Q979 32 1108 128T1313 390T1388 764Q1388 972
1313 1137T1108 1399T816 1496Q654 1496 525 1400T320 1138T244 764Q244 556 319 390T523 128T816 32ZM1116 1696L816 2004L516 1696H440V1704L808 2080H824L1192 1704V1696H1116Z"></glyph>
<glyph unicode="&#xf5;" horiz-adv-x="1632" d="M816 -32Q635 -32 491 72T264 357T180 764Q180 991 263 1171T491 1455T816 1560Q997 1560 1140 1455T1368 1170T1452 764Q1452 538 1369 358T1141 73T816 -32ZM816 32Q979 32 1108 128T1313 390T1388 764Q1388 972
1313 1137T1108 1399T816 1496Q654 1496 525 1400T320 1138T244 764Q244 556 319 390T523 128T816 32ZM420 1804L356 1812Q370 1906 444 1965T620 2024Q689 2024 739 1999T830 1942T914 1885T1012 1860Q1080 1860 1138 1903T1212 2016L1276 2000Q1254 1909 1179
1853T1012 1796Q948 1796 902 1821T816 1878T730 1935T620 1960Q542 1960 486 1916T420 1804Z"></glyph>
<glyph unicode="&#xf6;" horiz-adv-x="1632" d="M816 -32Q635 -32 491 72T264 357T180 764Q180 991 263 1171T491 1455T816 1560Q997 1560 1140 1455T1368 1170T1452 764Q1452 538 1369 358T1141 73T816 -32ZM816 32Q979 32 1108 128T1313 390T1388 764Q1388 972
1313 1137T1108 1399T816 1496Q654 1496 525 1400T320 1138T244 764Q244 556 319 390T523 128T816 32ZM624 1816Q598 1816 579 1835T560 1880Q560 1906 579 1925T624 1944Q650 1944 669 1925T688 1880Q688 1854 669 1835T624 1816ZM1008 1816Q982 1816 963 1835T944
1880Q944 1906 963 1925T1008 1944Q1034 1944 1053 1925T1072 1880Q1072 1854 1053 1835T1008 1816Z"></glyph>
<glyph unicode="&#xf7;" horiz-adv-x="1792" d="M1476 832V768H316V832H1476ZM896 272Q866 272 845 293T824 344Q824 374 845 395T896 416Q926 416 947 395T968 344Q968 314 947 293T896 272ZM896 1184Q876 1184 860 1193T834 1219T824 1256Q824 1286 845 1307T896
1328Q926 1328 947 1307T968 1256Q968 1226 947 1205T896 1184Z"></glyph>
<glyph unicode="&#xf8;" horiz-adv-x="1632" d="M312 -40L256 -4L1320 1576L1376 1540L312 -40ZM816 -28Q635 -28 491 76T264 361T180 768Q180 995 263 1175T491 1459T816 1564Q997 1564 1140 1459T1368 1174T1452 768Q1452 542 1369 362T1141 77T816 -28ZM816
36Q979 36 1108 132T1313 394T1388 768Q1388 976 1313 1141T1108 1403T816 1500Q654 1500 525 1404T320 1142T244 768Q244 560 319 394T523 132T816 36Z"></glyph>
<glyph unicode="&#xf9;" horiz-adv-x="1600" d="M1264 504V1536H1328V0H1264V244H1256Q1202 124 1079 52T796 -20Q642 -20 524 47T339 232T272 504V1536H336V504Q336 300 464 172T796 44Q932 44 1037 103T1203 266T1264 504ZM1026 1760L730 2192H810L1090 1760H1026Z"></glyph>
<glyph unicode="&#xfa;" horiz-adv-x="1600" d="M1264 504V1536H1328V0H1264V244H1256Q1202 124 1079 52T796 -20Q642 -20 524 47T339 232T272 504V1536H336V504Q336 300 464 172T796 44Q932 44 1037 103T1203 266T1264 504ZM766 1760L1046 2192H1126L830 1760H766Z"></glyph>
<glyph unicode="&#xfb;" horiz-adv-x="1600" d="M1264 504V1536H1328V0H1264V244H1256Q1202 124 1079 52T796 -20Q642 -20 524 47T339 232T272 504V1536H336V504Q336 300 464 172T796 44Q932 44 1037 103T1203 266T1264 504ZM1100 1696L800 2004L500 1696H424V1704L792
2080H808L1176 1704V1696H1100Z"></glyph>
<glyph unicode="&#xfc;" horiz-adv-x="1600" d="M1264 504V1536H1328V0H1264V244H1256Q1202 124 1079 52T796 -20Q642 -20 524 47T339 232T272 504V1536H336V504Q336 300 464 172T796 44Q932 44 1037 103T1203 266T1264 504ZM864 1816Q838 1816 819 1835T800 1880Q800
1906 819 1925T864 1944Q890 1944 909 1925T928 1880Q928 1854 909 1835T864 1816ZM1248 1816Q1222 1816 1203 1835T1184 1880Q1184 1906 1203 1925T1248 1944Q1274 1944 1293 1925T1312 1880Q1312 1854 1293 1835T1248 1816Z"></glyph>
<glyph unicode="&#xfd;" horiz-adv-x="1472" d="M342 -576Q303 -576 259 -566T170 -536L194 -480Q293 -522 374 -511T518 -435T622 -256L704 -28L144 1536H212L732 80H740L1260 1536H1328L682 -280Q648 -376 597 -442T482 -542T342 -576ZM702 1760L982 2192H1062L766
1760H702Z"></glyph>
<glyph unicode="&#xfe;" horiz-adv-x="1622" d="M264 2048H328V944L308 768L328 584V-576H264V2048ZM298 1144H336Q378 1272 453 1365T630 1509T856 1560Q1038 1560 1170 1456T1375 1171T1448 764Q1448 538 1375 358T1169 73T856 -32Q734 -32 631 18T452 162T336
384H298V1144ZM1384 764Q1384 972 1320 1137T1138 1399T856 1496Q693 1496 575 1400T392 1138T328 764Q328 556 392 391T575 129T856 32Q1018 32 1136 128T1319 390T1384 764Z"></glyph>
<glyph unicode="&#xff;" horiz-adv-x="1472" d="M342 -576Q303 -576 259 -566T170 -536L194 -480Q293 -522 374 -511T518 -435T622 -256L704 -28L144 1536H212L732 80H740L1260 1536H1328L682 -280Q648 -376 597 -442T482 -542T342 -576ZM544 1816Q518 1816 499
1835T480 1880Q480 1906 499 1925T544 1944Q570 1944 589 1925T608 1880Q608 1854 589 1835T544 1816ZM928 1816Q902 1816 883 1835T864 1880Q864 1906 883 1925T928 1944Q954 1944 973 1925T992 1880Q992 1854 973 1835T928 1816Z"></glyph>
<glyph unicode="&#x2013;" horiz-adv-x="1408" d="M1408 910V846H0V910H1408Z"></glyph>
<glyph unicode="&#x2014;" horiz-adv-x="2816" d="M2816 910V846H0V910H2816Z"></glyph>
<glyph unicode="&#x2018;" horiz-adv-x="484" d="M140 1408V1588Q140 1670 169 1762T255 1941T392 2092L428 2044Q328 1962 266 1835T204 1588V1408H140Z"></glyph>
<glyph unicode="&#x2019;" horiz-adv-x="440" d="M344 2048V1868Q344 1786 315 1694T229 1515T92 1364L56 1412Q156 1494 218 1621T280 1868V2048H344Z"></glyph>
<glyph unicode="&#x201a;" horiz-adv-x="484" d="M344 256V76Q344 -6 315 -98T229 -277T92 -428L56 -380Q156 -298 218 -171T280 76V256H344Z"></glyph>
<glyph unicode="&#x201c;" horiz-adv-x="868" d="M140 1408V1588Q140 1670 169 1762T255 1941T392 2092L428 2044Q328 1962 266 1835T204 1588V1408H140ZM524 1408V1588Q524 1670 553 1762T639 1941T776 2092L812 2044Q712 1962 650 1835T588 1588V1408H524Z"></glyph>
<glyph unicode="&#x201d;" horiz-adv-x="868" d="M344 2048V1868Q344 1786 315 1694T229 1515T92 1364L56 1412Q156 1494 218 1621T280 1868V2048H344ZM728 2048V1868Q728 1786 699 1694T613 1515T476 1364L440 1412Q540 1494 602 1621T664 1868V2048H728Z"></glyph>
<glyph unicode="&#x201e;" horiz-adv-x="868" d="M344 256V76Q344 -6 315 -98T229 -277T92 -428L56 -380Q156 -298 218 -171T280 76V256H344ZM728 256V76Q728 -6 699 -98T613 -277T476 -428L440 -380Q540 -298 602 -171T664 76V256H728Z"></glyph>
<glyph unicode="&#x2022;" horiz-adv-x="1584" d="M792 560Q721 560 663 594T571 687T536 816Q536 887 570 945T662 1037T792 1072Q862 1072 920 1038T1014 945T1048 816Q1048 746 1013 688T920 595T792 560Z"></glyph>
<glyph unicode="&#x2039;" horiz-adv-x="968" d="M712 220H636L232 820V840H296L712 220ZM712 1448L296 828H232V848L636 1448H712Z"></glyph>
<glyph unicode="&#x203a;" horiz-adv-x="968" d="M256 220L672 840H736V820L332 220H256ZM256 1448H332L736 848V828H672L256 1448Z"></glyph>
</font>
</defs>
</svg>
