{
  "config": {
    "name": "Email Patterns",
    "version": "1.0.0",
    "update": 1654746793581,
    "logo": "static/logo.svg",
    "source": {
      "components": [
        "/01/uiengine/blocks",
        "/01/uiengine/examples",
        "/01/uiengine/layouts"
      ],
      "templates": "/01/uiengine/templates",
      "pages": "/01/uiengine/pages",
      "base": "/Users/vmardorf/BitBucket/1worldsync.bitbucket.io/01/uiengine",
      "configFile": "/Users/vmardorf/BitBucket/1worldsync.bitbucket.io/01/uiengine/uiengine.config.js"
    },
    "target": "/Users/vmardorf/BitBucket/1worldsync.bitbucket.io/01/uiengine/lib",
    "adapters": {
      "html": {
        "module": "@uiengine/adapter-html",
        "options": {
          "basedir": "./src"
        }
      }
    },
    "template": "preview.html",
    "ui": {
      "lang": "en",
      "hljs": "atom-one-dark",
      "cache": false,
      "debug": false,
      "customStylesFile": "static/uiengine.custom.css",
      "base": "/01/uiengine/",
      "viewports": {
        "Phone": {
          "width": 320
        },
        "Tablet": {
          "width": 800
        }
      },
      "breakpoints": {
        "SM": 320,
        "MD": 800
      }
    },
    "themes": [
      {
        "id": "_default",
        "title": "Default"
      }
    ],
    "plugins": []
  },
  "plugins": {
    "ui": {
      "js": [],
      "css": [],
      "tabs": [],
      "actions": [],
      "iframe_js": []
    }
  },
  "pages": {
    "index": {
      "childIds": [
        "blocks",
        "tokens"
      ],
      "id": "index",
      "title": "UI Framework",
      "isTitleFromHeading": true,
      "path": "",
      "sourcePath": "src/pages",
      "sourceFile": "01/uiengine/page.config.js",
      "readmeFile": "01/uiengine/README.md",
      "type": "documentation",
      "content": "<h1 id=\"ui-framework\" tabindex=\"-1\">UI Framework</h1>\n<p>Here you will find our html email layout code and css styles for building email templates</p>\n<h2 id=\"technologies-used\" tabindex=\"-1\">Technologies Used</h2>\n<ul>\n<li><a href=\"https://tailwindcss.com\">TailwindCSS</a></li>\n<li><a href=\"https://maizzle.com\">Maizzle</a></li>\n<li><a href=\"https://uiengine.uix.space\">UIEngine</a></li>\n</ul>",
      "files": [
        "/01/uiengine/static/fonts/static/favicon.ico",
        "/01/uiengine/static/fonts/static/logo.svg",
        "/01/uiengine/static/fonts/static/styles.css",
        "/01/uiengine/static/fonts/static/theme.css",
        "/01/uiengine/static/fonts/static/figure/spacing-box-module.svg",
        "/01/uiengine/static/fonts/static/image/sample.png",
        "/01/uiengine/static/fonts/inter/index.css",
        "/01/uiengine/static/fonts/plex/index.css",
        "/01/uiengine/static/fonts/zilla/index.css",
        "/01/uiengine/static/fonts/poppins/index.css",
      ]
    },
    "blocks": {
      "childIds": [],
      "componentIds": [
        "topbar",
        "header"
      ],
      "id": "blocks",
      "title": "Blocks",
      "isTitleFromHeading": false,
      "path": "blocks",
      "sourcePath": "01/uiengine/blocks",
      "sourceFile": "01/uiengine/blocks/page.config.js",
      "type": "documentation"
    },
    "tokens": {
      "childIds": [
        "tokens/colors",
        "tokens/fonts"
      ],
      "id": "tokens",
      "title": "Tokens",
      "isTitleFromHeading": true,
      "path": "tokens",
      "sourcePath": "01/uiengine/tokens",
      "sourceFile": "01/uiengine/tokens/page.config.js",
      "readmeFile": "01/uiengine/tokens/README.md",
      "type": "documentation",
      "content": "<h1 id=\"tokens\" tabindex=\"-1\">Tokens</h1>\n<p>Design tokens allow teams to better collaborate and ensure foundational brand consistency across any platform by providing a point of reference to get or programmatically pull the latest visual values (settings) of our brand design’s appearance.</p>\n<p>Unfortunately organizations has many interfaces and many platforms to maintain:</p>\n<ul>\n<li>Marketing websites</li>\n<li>Web applications (Internal / Third-party)</li>\n<li>Mobile applications (Android / iOS)</li>\n</ul>"
    },
    "tokens/colors": {
      "childIds": [],
      "title": "Colors",
      "template": "uiengine.html",
      "tokens": [
        {
          "type": "category",
          "name": "Brand",
          "tokens": [
            {
              "type": "color",
              "name": "primary-500",
              "value": "#008A5E",
              "description": "Golf green"
            },
            {
              "type": "color",
              "name": "primary-400",
              "value": "#00B259",
              "description": "Chateau"
            },
            {
              "type": "color",
              "name": "primary-300",
              "value": "#7AC143",
              "description": "Apple"
            },
            {
              "type": "color",
              "name": "primary-200",
              "value": "#C1D82F",
              "description": "Pear"
            }
          ]
        },
        {
          "type": "category",
          "name": "Accent",
          "tokens": [
            {
              "type": "color",
              "name": "secondary",
              "value": "#232F84"
            },
            {
              "type": "color",
              "name": "secondary-light",
              "value": "#114FC9"
            },
            {
              "type": "color",
              "name": "secondary-dark",
              "value": "#181B2F"
            }
          ]
        }
      ],
      "id": "tokens/colors",
      "path": "tokens/colors",
      "sourcePath": "01/uiengine/tokens/colors",
      "sourceFile": "01/uiengine/tokens/colors/page.config.js",
      "type": "tokens"
    },
    "tokens/fonts": {
      "childIds": [],
      "template": "uiengine.html",
      "title": "Fonts",
      "tokens": [
        {
          "type": "category",
          "name": "Poppins",
          "tokens": [
            {
              "type": "font",
              "value": "font-family: \"Poppins\"; font-weight: 700;",
              "description": "Display font for titles and headlines",
              "sizes": [
                "24px",
                "20px",
                "18px",
                "16px"
              ]
            }
          ]
        },
        {
          "type": "category",
          "name": "Inter",
          "tokens": [
            {
              "type": "font",
              "value": "font-family: \"Inter\"; font-weight: 500;",
              "description": "Body copy font for general use",
              "sizes": [
                "18px",
                "16px",
                "14px",
                "12px"
              ]
            }
          ]
        }
      ],
      "id": "tokens/fonts",
      "path": "tokens/fonts",
      "sourcePath": "01/uiengine/tokens/fonts",
      "sourceFile": "01/uiengine/tokens/fonts/page.config.js",
      "type": "tokens"
    },
    "tokens/spacing": {
      "childIds": [],
      "template": "uiengine.html",
      "tokens": [
        {
          "type": "space",
          "name": "0",
          "value": "0",
          "description": "clear, no spacing"
        },
        {
          "type": "space",
          "name": "px",
          "value": "1px",
          "description": "1 pixel"
        },
        {
          "type": "space",
          "name": "0.5",
          "value": "0.125rem",
          "description": "2px"
        },
        {
          "type": "space",
          "name": "1",
          "value": "0.25rem",
          "description": "4px"
        },
        {
          "type": "space",
          "name": "1.5",
          "value": "0.375rem",
          "description": "6px"
        },
        {
          "type": "space",
          "name": "2",
          "value": "0.5rem",
          "description": "8px"
        },
        {
          "type": "space",
          "name": "2.5",
          "value": "0.625rem",
          "description": "10px"
        },
        {
          "type": "space",
          "name": "3",
          "value": "0.875rem",
          "description": "12px"
        },
        {
          "type": "space",
          "name": "3.5",
          "value": "0.75rem",
          "description": "14px"
        },
        {
          "type": "space",
          "name": "4",
          "value": "1rem",
          "description": "16px, .5 increments stop here"
        },
        {
          "type": "space",
          "name": "5",
          "value": "1.25rem",
          "description": "20px"
        },
        {
          "type": "space",
          "name": "6",
          "value": "1.5rem",
          "description": "24px"
        },
        {
          "type": "space",
          "name": "7",
          "value": "1.75rem",
          "description": "28px"
        },
        {
          "type": "space",
          "name": "8",
          "value": "2rem",
          "description": "32px"
        },
        {
          "type": "space",
          "name": "9",
          "value": "2.25rem",
          "description": "36px"
        },
        {
          "type": "space",
          "name": "10",
          "value": "2.5rem",
          "description": "40px"
        }
      ],
      "id": "tokens/spacing",
      "title": "Spacing",
      "isTitleFromHeading": true,
      "path": "tokens/spacing",
      "sourcePath": "01/uiengine/tokens/spacing",
      "sourceFile": "01/uiengine/tokens/spacing/page.config.js",
      "readmeFile": "01/uiengine/tokens/spacing/README.md",
      "type": "tokens",
      "content": "<h1 id=\"spacing\" tabindex=\"-1\">Spacing</h1>\n<p>Majority of screen sizes (dimensions &amp; densities) are divisible by 8 so we use 8pt scale to design. Our our base unit is 1rem and that is equal to 16px, this is standard for most browsers. So if you want to think in pixels you can use this <a href=\"https://pixelsconverter.com/px-to-rem\">converter</a> to help find the class name for the px value you have in mind.</p>\n<figure class=\"my-4\">\n  <img src=\"/static/figure/spacing-box-module.svg\" height=\"240\" width=\"320\">\n  <figcaption>Use multiples of 8 to define dimensions, padding, and margin of both block and inline elements.</figcaption>\n</figure>\n<br>"
    },
    "tokens/typography": {
      "childIds": [],
      "template": "uiengine.html",
      "tokens": [
        {
          "type": "type",
          "name": "Heading level 1",
          "value": "h1",
          "description": "clear, no spacing"
        }
      ],
      "id": "tokens/typography",
      "title": "Typography",
      "isTitleFromHeading": false,
      "path": "tokens/typography",
      "sourcePath": "01/uiengine/tokens/typography",
      "sourceFile": "01/uiengine/tokens/typography/page.config.js",
      "type": "tokens"
    }
  },
  "components": {
    "header": {
      "id": "header",
      "title": "Header",
      "isTitleFromHeading": true,
      "content": "<h1 id=\"header\" tabindex=\"-1\">Header</h1>\n<p>Variations and uses</p>",
      "variants": [
        {
          "file": "simple.html",
          "description": "Simple clean look with lots of whitespace",
          "title": "Basic",
          "id": "header/simple.html-1",
          "componentId": "header",
          "extension": "html",
          "raw": "<!--# include file=\"../header.html\" -->\n<table role=\"presentation\" style=\"-ms-text-size-adjust: 100%; -webkit-text-size-adjust: 100%; border: 0; border-spacing: 0; border-collapse: collapse; table-layout: auto; margin: auto; width: 100%; max-width: 640px; background-color: #fff; mso-table-lspace: 0; mso-table-rspace: 0\" border=\"0\" cellpadding=\"0\" cellspacing=\"0\">\n  <tr style=\"-ms-text-size-adjust: 100%; -webkit-text-size-adjust: 100%\">\n    <td align=\"center\" style=\"-ms-text-size-adjust: 100%; -webkit-text-size-adjust: 100%; padding-top: 24px; padding-bottom: 24px; mso-table-lspace: 0; mso-table-rspace: 0\">\n      <a href=\"${header.productPage}\" style=\"-ms-text-size-adjust: 100%; -webkit-text-size-adjust: 100%; text-decoration: none; color: #1d4ed8\"><img src=\"https://1worldsync.bitbucket.io/01/uiengine/images/em-logo.png\" width=\"125\" alt=\"1WorldSync\" style=\"-ms-text-size-adjust: 100%; -webkit-text-size-adjust: 100%; max-width: 100%; border-width: 0px; vertical-align: middle; -ms-interpolation-mode: bicubic\"></a>\n    </td>\n  </tr>\n</table>",
          "context": {
            "header": {
              "partnerName": "Brand Partner",
              "partnerLogo": "https://1worldsync.bitbucket.io/01/uiengine/images/brand-logo.png",
              "productService": "Product/Service",
              "productText": "Optional descriptor text",
              "productPage": "javascript:void(0)"
            }
          }
        },
        {
          "file": "platform.html",
          "description": "This header variant has labeling for 1WorldSync's Product and/or Service. The Platform Header should be used for operational communications like release notes.",
          "title": "Platform",
          "id": "header/platform.html-2",
          "componentId": "header",
          "extension": "html",
          "raw": "<!--# include file=\"../header.html\" -->\n<table role=\"presentation\" style=\"-ms-text-size-adjust: 100%; -webkit-text-size-adjust: 100%; border: 0; border-spacing: 0; border-collapse: collapse; table-layout: auto; margin: auto; width: 100%; max-width: 640px; background-color: #fff; mso-table-lspace: 0; mso-table-rspace: 0\" border=\"0\" cellpadding=\"0\" cellspacing=\"0\">\n  <tr style=\"-ms-text-size-adjust: 100%; -webkit-text-size-adjust: 100%\">\n    <td class=\"header--logo\" style=\"-ms-text-size-adjust: 100%; -webkit-text-size-adjust: 100%; mso-table-lspace: 0; mso-table-rspace: 0\">\n      <a href=\"${header.productPage}\" style=\"-ms-text-size-adjust: 100%; -webkit-text-size-adjust: 100%; text-decoration: none; color: #1d4ed8\"><img src=\"https://1worldsync.bitbucket.io/01/uiengine/images/em-logo.png\" width=\"125\" height=\"56\" alt=\"1WorldSync\" style=\"-ms-text-size-adjust: 100%; -webkit-text-size-adjust: 100%; max-width: 100%; border-width: 0px; vertical-align: middle; -ms-interpolation-mode: bicubic\"></a>\n    </td>\n    <td class=\"header--label\" valign=\"middle\" style=\"-ms-text-size-adjust: 100%; -webkit-text-size-adjust: 100%; mso-table-lspace: 0; mso-table-rspace: 0\">\n      <div style=\"-ms-text-size-adjust: 100%; -webkit-text-size-adjust: 100%; height: 32px; font-size: 20px; font-weight: 700; line-height: 36px; color: #374151; font-family: 'Poppins'\">${header.productService}</div>\n      <div style=\"-ms-text-size-adjust: 100%; -webkit-text-size-adjust: 100%; height: 24px; font-size: 14px; font-weight: 500; line-height: 20px; color: #6b7280; font-family: Inter\">${header.productText}</div>\n    </td>\n  </tr>\n</table>",
          "context": {
            "header": {
              "partnerName": "Brand Partner",
              "partnerLogo": "https://1worldsync.bitbucket.io/01/uiengine/images/brand-logo.png",
              "productService": "Product/Service",
              "productText": "Optional descriptor text",
              "productPage": "javascript:void(0)"
            }
          }
        },
        {
          "file": "cobrand.html",
          "description": "Use for Partner senarios like Program Onboarding for Clients.",
          "title": "Cobrand",
          "id": "header/cobrand.html-3",
          "componentId": "header",
          "extension": "html",
          "raw": "<!--# include file=\"../header.html\" -->\n<table role=\"presentation\" style=\"-ms-text-size-adjust: 100%; -webkit-text-size-adjust: 100%; border: 0; border-spacing: 0; border-collapse: collapse; table-layout: auto; margin: auto; width: 100%; max-width: 640px; background-color: #fff; mso-table-lspace: 0; mso-table-rspace: 0\" border=\"0\" cellpadding=\"0\" cellspacing=\"0\">\n  <tr style=\"-ms-text-size-adjust: 100%; -webkit-text-size-adjust: 100%\">\n    <td class=\"header--left\" style=\"-ms-text-size-adjust: 100%; -webkit-text-size-adjust: 100%; mso-table-lspace: 0; mso-table-rspace: 0\">\n      <a href=\"${header.productPage}\" style=\"-ms-text-size-adjust: 100%; -webkit-text-size-adjust: 100%; text-decoration: none; color: #1d4ed8\">\n        <img src=\"https://1worldsync.bitbucket.io/01/uiengine/images/em-logo.png\" width=\"125\" class=\"sm-hidden\" alt=\"1WorldSync\" style=\"-ms-text-size-adjust: 100%; -webkit-text-size-adjust: 100%; max-width: 100%; border-width: 0px; vertical-align: middle; -ms-interpolation-mode: bicubic; display: block\">\n        <img src=\"https://1worldsync.bitbucket.io/01/uiengine/images/em-logo-icon.png\" width=\"56\" class=\"md-hidden\" alt=\"1WorldSync\" style=\"-ms-text-size-adjust: 100%; -webkit-text-size-adjust: 100%; max-width: 100%; border-width: 0px; vertical-align: middle; -ms-interpolation-mode: bicubic; margin: auto\">\n      </a>\n    </td>\n    <td class=\"header--name\" valign=\"middle\" style=\"-ms-text-size-adjust: 100%; -webkit-text-size-adjust: 100%; mso-table-lspace: 0; mso-table-rspace: 0\">\n      <div style=\"-ms-text-size-adjust: 100%; -webkit-text-size-adjust: 100%; height: 32px; font-size: 20px; font-weight: 700; line-height: 36px; color: #374151; font-family: 'Poppins'\">${header.productService}</div>\n      <div style=\"-ms-text-size-adjust: 100%; -webkit-text-size-adjust: 100%; height: 24px; font-size: 14px; font-weight: 500; line-height: 20px; color: #6b7280; font-family: Inter\">${header.productText}</div>\n    </td>\n    <td class=\"md-hidden\" style=\"-ms-text-size-adjust: 100%; -webkit-text-size-adjust: 100%; mso-table-lspace: 0; mso-table-rspace: 0; display: block\">\n      <div style=\"-ms-text-size-adjust: 100%; -webkit-text-size-adjust: 100%; margin: 16px auto; height: 2px; width: 100%; max-width: 160px; background-color: #d4d4d8\"></div>\n    </td>\n    <td class=\"header--right\" style=\"-ms-text-size-adjust: 100%; -webkit-text-size-adjust: 100%; mso-table-lspace: 0; mso-table-rspace: 0\">\n      <img src=\"${header.partnerLogo}\" alt=\"${header.partnerName}\" style=\"-ms-text-size-adjust: 100%; -webkit-text-size-adjust: 100%; max-width: 100%; border-width: 0px; vertical-align: middle; -ms-interpolation-mode: bicubic\">\n    </td>\n  </tr>\n</table>",
          "context": {
            "header": {
              "partnerName": "Brand Partner",
              "partnerLogo": "https://1worldsync.bitbucket.io/01/uiengine/images/brand-logo.png",
              "productService": "Product/Service",
              "productText": "Optional descriptor text",
              "productPage": "javascript:void(0)"
            }
          }
        }
      ],
      "sourcePath": "src/blocks/header",
      "sourceFile": "src/blocks/header/component.config.js",
      "readmeFile": "src/blocks/header/README.md",
      "type": "component",
      "label": "Block",
      "context": {
        "header": {
          "partnerName": "Brand Partner",
          "partnerLogo": "https://1worldsync.bitbucket.io/01/uiengine/images/brand-logo.png",
          "productService": "Product/Service",
          "productText": "Optional descriptor text",
          "productPage": "javascript:void(0)"
        }
      }
    },
    "topbar": {
      "id": "topbar",
      "title": "Topbar",
      "isTitleFromHeading": true,
      "content": "<h1 id=\"topbar\" tabindex=\"-1\">Topbar</h1>\n<p>Used for the Online Link or an Alert Strip</p>\n<p><a href=\"https://design.1worldsync.com/2af768fc9/p/0335f5-topbar\">Design Specs</a></p>",
      "variants": [
        {
          "file": "light.html",
          "context": {
            "topbar": {
              "colorText": "#52525b",
              "textLabel": "VIEW IN BROWSER<img src='https://1worldsync.bitbucket.io/01/uiengine/images/em-gray-arrow-angled.png' height='16' width='20' style='max-width: 100%; border-width: 0px; -ms-interpolation-mode: bicubic; display: inline-block; height: 16px; width: 20px; vertical-align: text-top' alt=''>"
            }
          },
          "id": "topbar/light.html-1",
          "componentId": "topbar",
          "title": "Light",
          "extension": "html",
          "raw": "<table role=\"presentation\" cellspacing=\"0\" cellpadding=\"0\" border=\"0\" style=\"-ms-text-size-adjust: 100%; -webkit-text-size-adjust: 100%; border: 0; border-spacing: 0; border-collapse: collapse; table-layout: auto; mso-table-lspace: 0; mso-table-rspace: 0; width: 100%\">\n  <tr style=\"-ms-text-size-adjust: 100%; -webkit-text-size-adjust: 100%\">\n    <td align=\"center\" style=\"-ms-text-size-adjust: 100%; -webkit-text-size-adjust: 100%; width: 100%; padding: 4px 8px; text-align: center; vertical-align: middle; mso-table-lspace: 0; mso-table-rspace: 0\" valign=\"middle\">\n      <a href=\"${topbar.onlineURL}\" style=\"-ms-text-size-adjust: 100%; -webkit-text-size-adjust: 100%; text-decoration: none; margin: auto; display: block; min-height: 16px; font-size: 11px; line-height: 16px; font-family: 'Poppins'; padding-top: 4px; padding-bottom: 4px; font-weight: 500; letter-spacing: 0.05em; color: ${topbar.colorText}\">\n        ${topbar.textLabel}\n      </a>\n    </td>\n  </tr>\n</table>"
        },
        {
          "file": "primary.html",
          "context": {
            "topbar": {
              "colorStrip": "#008A5E",
              "colorText": "#FFFFFF",
              "textLabel": "SERVICE MESSAGE"
            }
          },
          "id": "topbar/primary.html-2",
          "componentId": "topbar",
          "title": "Primary",
          "extension": "html",
          "raw": "<table role=\"presentation\" cellspacing=\"0\" cellpadding=\"0\" border=\"0\" style=\"-ms-text-size-adjust: 100%; -webkit-text-size-adjust: 100%; border: 0; border-spacing: 0; border-collapse: collapse; table-layout: auto; mso-table-lspace: 0; mso-table-rspace: 0; width: 100%\">\n  <tr style=\"-ms-text-size-adjust: 100%; -webkit-text-size-adjust: 100%\">\n    <td align=\"center\" style=\"-ms-text-size-adjust: 100%; -webkit-text-size-adjust: 100%; width: 100%; padding: 4px 8px; text-align: center; vertical-align: middle; mso-table-lspace: 0; mso-table-rspace: 0; background-color: ${topbar.colorStrip}\" valign=\"middle\">\n      <div style=\"-ms-text-size-adjust: 100%; -webkit-text-size-adjust: 100%; margin: auto; display: block; min-height: 16px; font-size: 11px; line-height: 16px; font-family: 'Poppins'; font-weight: 700; letter-spacing: 0.05em; color: ${topbar.colorText}\">\n        ${topbar.textLabel}\n      </div>\n    </td>\n  </tr>\n</table>"
        },
        {
          "file": "secondary.html",
          "context": {
            "topbar": {
              "colorStrip": "#312e81",
              "colorText": "#FFFFFF",
              "textLabel": "BUSINESS COMMUNICATION"
            }
          },
          "id": "topbar/secondary.html-3",
          "componentId": "topbar",
          "title": "Secondary",
          "extension": "html",
          "raw": "<table role=\"presentation\" cellspacing=\"0\" cellpadding=\"0\" border=\"0\" style=\"-ms-text-size-adjust: 100%; -webkit-text-size-adjust: 100%; border: 0; border-spacing: 0; border-collapse: collapse; table-layout: auto; mso-table-lspace: 0; mso-table-rspace: 0; width: 100%\">\n  <tr style=\"-ms-text-size-adjust: 100%; -webkit-text-size-adjust: 100%\">\n    <td align=\"center\" style=\"-ms-text-size-adjust: 100%; -webkit-text-size-adjust: 100%; width: 100%; padding: 4px 8px; text-align: center; vertical-align: middle; mso-table-lspace: 0; mso-table-rspace: 0; background-color: ${topbar.colorStrip}\" valign=\"middle\">\n      <div style=\"-ms-text-size-adjust: 100%; -webkit-text-size-adjust: 100%; margin: auto; display: block; min-height: 16px; font-size: 11px; line-height: 16px; font-family: 'Poppins'; font-weight: 700; letter-spacing: 0.05em; color: ${topbar.colorText}\">\n        ${topbar.textLabel}\n      </div>\n    </td>\n  </tr>\n</table>"
        },
        {
          "file": "info.html",
          "context": {
            "topbar": {
              "colorStrip": "#6b21a8",
              "colorText": "#FFFFFF",
              "textLabel": "CTA ANNOUNCEMENT"
            }
          },
          "id": "topbar/info.html-4",
          "componentId": "topbar",
          "title": "Info",
          "extension": "html",
          "raw": "<table role=\"presentation\" cellspacing=\"0\" cellpadding=\"0\" border=\"0\" style=\"-ms-text-size-adjust: 100%; -webkit-text-size-adjust: 100%; border: 0; border-spacing: 0; border-collapse: collapse; table-layout: auto; mso-table-lspace: 0; mso-table-rspace: 0; width: 100%\">\n  <tr style=\"-ms-text-size-adjust: 100%; -webkit-text-size-adjust: 100%\">\n    <td align=\"center\" style=\"-ms-text-size-adjust: 100%; -webkit-text-size-adjust: 100%; width: 100%; padding: 4px 8px; text-align: center; vertical-align: middle; mso-table-lspace: 0; mso-table-rspace: 0; background-color: ${topbar.colorStrip}\" valign=\"middle\">\n      <div style=\"-ms-text-size-adjust: 100%; -webkit-text-size-adjust: 100%; margin: auto; display: block; min-height: 16px; font-size: 11px; line-height: 16px; font-family: 'Poppins'; font-weight: 700; letter-spacing: 0.05em; color: ${topbar.colorText}\">\n        ${topbar.textLabel}\n      </div>\n    </td>\n  </tr>\n</table>"
        },
        {
          "file": "alert.html",
          "context": {
            "topbar": {
              "colorStrip": "#b91c1c",
              "colorText": "#FFFFFF",
              "textLabel": "SUPPORT NOTIFICATION"
            }
          },
          "id": "topbar/alert.html-5",
          "componentId": "topbar",
          "title": "Alert",
          "extension": "html",
          "raw": "<table role=\"presentation\" cellspacing=\"0\" cellpadding=\"0\" border=\"0\" style=\"-ms-text-size-adjust: 100%; -webkit-text-size-adjust: 100%; border: 0; border-spacing: 0; border-collapse: collapse; table-layout: auto; mso-table-lspace: 0; mso-table-rspace: 0; width: 100%\">\n  <tr style=\"-ms-text-size-adjust: 100%; -webkit-text-size-adjust: 100%\">\n    <td align=\"center\" style=\"-ms-text-size-adjust: 100%; -webkit-text-size-adjust: 100%; width: 100%; padding: 4px 8px; text-align: center; vertical-align: middle; mso-table-lspace: 0; mso-table-rspace: 0; background-color: ${topbar.colorStrip}\" valign=\"middle\">\n      <div style=\"-ms-text-size-adjust: 100%; -webkit-text-size-adjust: 100%; margin: auto; display: block; min-height: 16px; font-size: 11px; line-height: 16px; font-family: 'Poppins'; font-weight: 700; letter-spacing: 0.05em; color: ${topbar.colorText}\">\n        ${topbar.textLabel}\n      </div>\n    </td>\n  </tr>\n</table>"
        }
      ],
      "sourcePath": "src/blocks/topbar",
      "sourceFile": "src/blocks/topbar/component.config.js",
      "readmeFile": "src/blocks/topbar/README.md",
      "type": "component",
      "label": "Block",
      "context": {
        "topbar": {
          "colorStrip": "#FFFFFF",
          "colorText": "#000000",
          "textLabel": "Message Label Text",
          "onlineURL": "javascript:void(0)"
        }
      }
    }
  },
  "navigation": {
    "index": {
      "childIds": [
        "blocks",
        "tokens"
      ],
      "id": "index",
      "itemId": "index",
      "path": "/",
      "type": "documentation",
      "title": "UI Framework"
    },
    "blocks": {
      "nextSiblingId": "tokens",
      "childIds": [
        "blocks/topbar",
        "blocks/header"
      ],
      "parentId": "index",
      "id": "blocks",
      "itemId": "blocks",
      "isStructural": true,
      "path": "/blocks/",
      "type": "documentation",
      "title": "Blocks"
    },
    "blocks/topbar": {
      "nextSiblingId": "blocks/header",
      "parentId": "blocks",
      "id": "blocks/topbar",
      "itemId": "topbar",
      "path": "/blocks/topbar/",
      "type": "component",
      "title": "Topbar",
      "keywords": [
        null
      ]
    },
    "blocks/header": {
      "prevSiblingId": "blocks/topbar",
      "parentId": "blocks",
      "id": "blocks/header",
      "itemId": "header",
      "path": "/blocks/header/",
      "type": "component",
      "title": "Header",
      "keywords": [
        null
      ]
    },
    "tokens": {
      "prevSiblingId": "blocks",
      "childIds": [
        "tokens/colors",
        "tokens/fonts"
      ],
      "parentId": "index",
      "id": "tokens",
      "itemId": "tokens",
      "path": "/tokens/",
      "type": "documentation",
      "title": "Tokens"
    },
    "tokens/colors": {
      "nextSiblingId": "tokens/fonts",
      "parentId": "tokens",
      "id": "tokens/colors",
      "itemId": "tokens/colors",
      "path": "/tokens/colors/",
      "type": "tokens",
      "title": "Colors"
    },
    "tokens/fonts": {
      "prevSiblingId": "tokens/colors",
      "parentId": "tokens",
      "id": "tokens/fonts",
      "itemId": "tokens/fonts",
      "path": "/tokens/fonts/",
      "type": "tokens",
      "title": "Fonts"
    },
    "tokens/spacing": {
      "nextSiblingId": "tokens/colors",
      "parentId": "tokens",
      "id": "tokens/spacing",
      "itemId": "tokens/spacing",
      "path": "/tokens/spacing/",
      "type": "tokens",
      "title": "Spacing"
    },
    "tokens/typography": {
      "nextSiblingId": "tokens/colors",
      "parentId": "tokens",
      "id": "tokens/typography",
      "itemId": "tokens/typography",
      "path": "/tokens/typography/",
      "type": "tokens",
      "title": "Typography"
    }
  }
}