<svg width="960" height="540" viewBox="0 0 960 540" fill="none" xmlns="http://www.w3.org/2000/svg">
<g clip-path="url(#clip0_301_32)">
<path d="M960 0H0V540H960V0Z" fill="white"/>
<path d="M831.96 604L813.655 583.2C795.25 562.4 758.641 520.8 756.14 479.2C753.639 437.6 785.248 396 803.152 354.4C820.957 312.8 824.958 271.2 812.955 229.6C800.952 188 772.944 146.4 773.445 104.8C773.945 63.2001 802.952 21.6001 817.456 0.800059L831.96 -20L984 -20C984 188 984 396 984 604L831.96 604Z" fill="white"/>
<path d="M831.96 604L813.655 583.2C795.25 562.4 758.641 520.8 756.14 479.2C753.639 437.6 785.248 396 803.152 354.4C820.957 312.8 824.958 271.2 812.955 229.6C800.952 188 772.944 146.4 773.445 104.8C773.945 63.2001 802.952 21.6001 817.456 0.800059L831.96 -20L984 -20C984 188 984 396 984 604L831.96 604Z" fill="url(#paint0_linear_301_32)" fill-opacity="0.3"/>
<path d="M778 561C780.658 521.168 783.793 481.614 799.832 444.402C816.585 405.537 847.496 366.671 854.737 327.805C861.979 288.939 845.334 250.073 840.903 211.207C836.364 172.341 843.929 133.475 849.117 94.6096C855.217 49.8477 862.622 9.74413 849.117 -33L992 -33C992 165 992 363 992 561L778 561Z" fill="url(#paint1_linear_301_32)"/>
<path d="M894.012 561C888.807 523.413 886.094 492.035 885.85 447.657C885.607 403.312 897.883 372.095 892.756 334.314C887.734 296.534 867.853 258.753 857.703 220.972C847.657 183.191 843.566 151.903 847.448 107.629C852.503 49.9833 894.012 -33 894.012 -33L984 -5.71377C984 183.191 984 372.095 984 561L894.012 561Z" fill="#008855"/>
</g>
<defs>
<linearGradient id="paint0_linear_301_32" x1="708.847" y1="737.948" x2="1261.87" y2="462.96" gradientUnits="userSpaceOnUse">
<stop offset="0.0625" stop-color="#00BBCC"/>
<stop offset="0.484375" stop-color="#00BB55"/>
<stop offset="0.947917" stop-color="#77CC44"/>
</linearGradient>
<linearGradient id="paint1_linear_301_32" x1="733.742" y1="686.144" x2="1251.86" y2="427.324" gradientUnits="userSpaceOnUse">
<stop offset="0.0625" stop-color="#00BBCC"/>
<stop offset="0.484375" stop-color="#00BB55"/>
<stop offset="0.947917" stop-color="#77CC44"/>
</linearGradient>
<clipPath id="clip0_301_32">
<rect width="960" height="540" fill="white"/>
</clipPath>
</defs>
</svg>
