<svg width="64" height="88" viewBox="0 0 64 88" fill="none" xmlns="http://www.w3.org/2000/svg">
<g clip-path="url('#clip0_549_18606')">
<path d="M0.611069 31.6322C0.611069 14.2894 14.6647 0.234863 32.0042 0.234863C49.3433 0.234863 63.4016 14.2885 63.4016 31.6322C63.4016 48.9644 49.344 63.0254 32.0042 63.0254C14.6651 63.0254 0.611069 48.9648 0.611069 31.6322V31.6322ZM31.998 52.5561C43.555 52.5561 52.9239 43.1853 52.9239 31.6312C52.9239 20.0721 43.5552 10.7014 31.998 10.7014C20.4418 10.7014 11.073 20.0712 11.073 31.6312C11.073 43.1853 20.4428 52.5561 31.998 52.5561V52.5561ZM42.4609 31.6301C42.4609 37.4082 37.7771 42.0931 31.998 42.0931C26.2188 42.0931 21.536 37.4082 21.536 31.6301C21.536 25.852 26.2199 21.1671 31.999 21.1671C37.7781 21.1671 42.4609 25.852 42.4609 31.6301Z" fill="#CC0000"></path>
<path d="M6.02837 67.0952V70.7861H8.50553V73.0483H6.02837V79.1454C6.02837 80.2882 6.31431 80.5742 7.45708 80.5742C7.83834 80.5742 8.21957 80.5508 8.50551 80.4788V83.1222C7.93363 83.2175 7.17212 83.2409 6.50492 83.2409C3.90906 83.2409 2.64672 82.455 2.64672 80.2638V73.0484H0.59848V70.7862H2.64672V67.0953L6.02837 67.0952ZM20.6977 79.8836C20.6977 80.6928 20.8407 80.8601 21.5555 80.8601H21.6508V83.0513C21.3415 83.1942 20.9603 83.3372 20.2455 83.3372C18.6738 83.3372 17.8646 82.8606 17.6021 81.7412C16.7929 82.7177 15.3631 83.4315 13.316 83.4315C10.7911 83.4315 9.12408 82.1215 9.12408 79.7406C9.12408 78.5502 9.50534 77.7167 10.1959 77.1215C10.9817 76.4543 12.1245 76.0974 14.1728 75.8834C16.364 75.6451 17.3161 75.4545 17.3161 74.3594C17.3161 72.954 16.2919 72.7158 15.1491 72.7158C13.7438 72.7158 13.0057 73.2876 12.887 74.5734H9.50523C9.6482 71.8823 11.8627 70.4535 15.3164 70.4535C18.9129 70.4535 20.6986 71.6682 20.6986 73.9537V79.8836L20.6977 79.8836ZM14.5782 81.1693C16.3881 81.1693 17.317 80.1929 17.317 78.383V77.0729C17.0077 77.3589 16.4125 77.5252 15.2688 77.6681C13.5298 77.8821 12.5057 78.2633 12.5057 79.5968C12.5057 80.5742 13.1009 81.1694 14.5782 81.1694L14.5782 81.1693ZM30.4156 70.5722V73.7155C30.016 73.6336 29.6089 73.5939 29.2009 73.5968C26.748 73.5968 25.8669 75.2871 25.8669 77.5503V83.0987H22.4852V70.7859H25.7005V73.0724H25.7481C26.391 71.524 27.9871 70.4533 29.6773 70.4533C30.0109 70.4522 30.2482 70.5243 30.4155 70.5719L30.4156 70.5722ZM39.3701 72.4298H39.4178V70.7861H42.6331V82.3365C42.6331 85.5275 40.7754 87.7664 36.2745 87.7664C33.4171 87.7664 30.9643 86.3134 30.8213 83.813H34.1796C34.4655 85.0034 35.3943 85.5043 36.7034 85.5043C38.4424 85.5043 39.4188 84.4091 39.4188 82.5272V80.8369H39.3712C38.7049 82.0273 37.3472 82.7421 35.6802 82.7421C32.1312 82.7421 30.4167 80.1463 30.4167 76.5508C30.4167 73.4075 32.25 70.4537 35.7037 70.4537C37.465 70.4526 38.6077 71.1199 39.3703 72.4299L39.3701 72.4298ZM36.536 80.1929C38.3693 80.1929 39.4178 78.6922 39.4178 76.7636C39.4178 75.049 38.8936 73.0007 36.5128 73.0007C34.7748 73.0007 33.7982 74.477 33.7982 76.5009C33.7972 78.5024 34.5831 80.1929 36.536 80.1929V80.1929ZM55.8505 77.1448C55.8505 77.3354 55.8271 77.7643 55.8271 77.7643H46.9447C47.04 79.8835 48.0165 80.8844 49.945 80.8844C51.2308 80.8844 52.3744 80.1462 52.6361 79.2884H55.6132C54.7077 82.0748 52.8026 83.4326 49.8498 83.4326C45.9438 83.4326 43.563 80.7415 43.563 76.9553C43.563 73.2401 46.1345 70.4537 49.8498 70.4537C53.7314 70.4526 55.8506 73.5017 55.8506 77.1449L55.8505 77.1448ZM52.4455 75.6208C52.1119 73.7632 51.3027 73.0017 49.7301 73.0017C48.0864 73.0017 47.0867 74.0025 46.9437 75.6208H52.4455ZM60.9243 67.0953V70.7862H63.4015V73.0484H60.9243V79.1455C60.9243 80.2883 61.2103 80.5742 62.353 80.5742C62.7343 80.5742 63.1155 80.5509 63.4015 80.4789V83.1223C62.8296 83.2176 62.0681 83.2409 61.4009 83.2409C58.805 83.2409 57.5427 82.4551 57.5427 80.2639V73.0484H55.4944V70.7863H57.5427V67.0953L60.9243 67.0953Z" fill="#CC0000"></path>
</g>
<defs>
<clipPath id="clip0_549_18606">
<rect width="62.8031" height="87.5307" fill="white" transform="translate(0.59845 0.234863)"></rect>
</clipPath>
</defs>
</svg>
