<svg width="936" height="560" viewBox="0 0 936 560" fill="none" xmlns="http://www.w3.org/2000/svg">
<path d="M766.767 519.627H131.263C121.034 519.627 111.224 515.569 103.986 508.345C96.7477 501.12 92.674 491.32 92.6592 481.095V67.0235C92.6592 59.3116 95.7231 51.9153 101.177 46.4608C106.631 41.0064 114.029 37.9402 121.745 37.9365H777.679C785.023 37.9365 792.067 40.8528 797.26 46.0438C802.453 51.2348 805.371 58.2753 805.371 65.6165V481.095C805.356 491.32 801.282 501.12 794.044 508.345C786.806 515.569 776.995 519.627 766.767 519.627V519.627Z" fill="#BFBFBF"/>
<path d="M791.344 522.411H97.6293C87.2573 522.411 77.31 518.305 69.9759 510.994C62.6418 503.684 58.5215 493.769 58.5215 483.431H830.452C830.452 493.769 826.331 503.684 818.997 510.994C811.663 518.305 801.716 522.411 791.344 522.411Z" fill="#E5E5E5"/>
<path d="M378.998 483.431L388.571 498.745H523.38L532.269 483.431H378.998Z" fill="#A3A3A3"/>
<path d="M137.334 60H565V461H141.118C134.721 461 128.587 458.073 124.064 452.864C119.541 447.655 117 440.589 117 433.222V83.4195C117 77.2083 119.142 71.2514 122.956 66.8594C126.769 62.4674 131.941 60 137.334 60Z" fill="#455A64" fill-opacity="0.9"/>
<path d="M229.808 60.2114H125.854C123.359 60.2114 120.966 61.2012 119.201 62.963C117.437 64.7248 116.445 67.1143 116.445 69.6058V447.716C116.449 451.095 117.795 454.334 120.188 456.723C122.58 459.112 125.824 460.456 129.208 460.46H225.814C226.874 460.456 227.89 460.033 228.639 459.283C229.388 458.533 229.808 457.517 229.808 456.458V60.2114Z" fill="#263238"/>
<path d="M153.968 89.4332C153.971 90.8105 153.564 92.1577 152.8 93.3042C152.037 94.4507 150.949 95.345 149.677 95.874C148.404 96.4029 147.003 96.5427 145.65 96.2757C144.298 96.0087 143.055 95.3468 142.08 94.3738C141.104 93.4009 140.439 92.1606 140.169 90.81C139.899 89.4594 140.036 88.0591 140.563 86.7863C141.09 85.5136 141.983 84.4256 143.129 83.6602C144.275 82.8947 145.623 82.4861 147.001 82.4861C147.915 82.4843 148.821 82.6627 149.666 83.011C150.511 83.3593 151.279 83.8707 151.927 84.516C152.574 85.1613 153.087 85.9277 153.437 86.7715C153.788 87.6153 153.968 88.5198 153.968 89.4332V89.4332Z" fill="#455A64"/>
<path d="M165.812 96.4078C169.659 96.4078 172.778 93.2913 172.778 89.4469C172.778 85.6026 169.659 82.4861 165.812 82.4861C161.964 82.4861 158.845 85.6026 158.845 89.4469C158.845 93.2913 161.964 96.4078 165.812 96.4078Z" fill="#455A64"/>
<path d="M186.016 96.4078C189.863 96.4078 192.983 93.2913 192.983 89.4469C192.983 85.6026 189.863 82.4861 186.016 82.4861C182.168 82.4861 179.049 85.6026 179.049 89.4469C179.049 93.2913 182.168 96.4078 186.016 96.4078Z" fill="#455A64"/>
<path d="M406.93 95.0154H265.443C263.594 95.0154 261.82 94.2784 260.513 92.9665C259.205 91.6546 258.471 89.8752 258.471 88.0199C258.469 87.1039 258.648 86.1968 258.999 85.3511C259.349 84.5054 259.864 83.738 260.513 83.0936C261.161 82.4492 261.931 81.9406 262.778 81.5974C263.624 81.2542 264.53 81.0831 265.443 81.0943H406.93C407.837 81.0924 408.735 81.2703 409.573 81.6177C410.412 81.9651 411.173 82.4751 411.815 83.1186C412.456 83.7621 412.964 84.5263 413.31 85.3674C413.657 86.2085 413.834 87.1099 413.832 88.0199V88.0199C413.832 89.8632 413.107 91.632 411.815 92.9419C410.522 94.2519 408.767 94.997 406.93 95.0154V95.0154Z" fill="#EEEEEE"/>
<path d="M199.142 185.506H150.595C149.272 185.506 148.004 184.993 147.068 184.079C146.133 183.165 145.607 181.926 145.607 180.634C145.607 179.342 146.133 178.102 147.068 177.188C148.004 176.275 149.272 175.761 150.595 175.761H199.142C200.465 175.761 201.733 176.275 202.668 177.188C203.604 178.102 204.129 179.342 204.129 180.634V180.634C204.129 181.926 203.604 183.165 202.668 184.079C201.733 184.993 200.465 185.506 199.142 185.506Z" fill="#455A64"/>
<path d="M328.745 133.996H282.947C282.293 133.996 281.646 133.87 281.042 133.624C280.439 133.379 279.89 133.019 279.429 132.566C278.967 132.113 278.602 131.575 278.353 130.983C278.104 130.391 277.977 129.757 277.979 129.117V129.117C277.979 127.826 278.502 126.589 279.434 125.676C280.365 124.764 281.629 124.251 282.947 124.251H328.745C330.063 124.251 331.327 124.764 332.258 125.676C333.19 126.589 333.714 127.826 333.714 129.117C333.715 129.757 333.588 130.391 333.339 130.983C333.091 131.575 332.725 132.113 332.263 132.566C331.802 133.019 331.253 133.379 330.65 133.624C330.046 133.87 329.399 133.996 328.745 133.996Z" fill="#263238"/>
<path d="M328.745 159.751H282.947C281.629 159.751 280.365 159.238 279.434 158.324C278.502 157.41 277.979 156.171 277.979 154.879V154.879C277.979 153.586 278.502 152.347 279.434 151.433C280.365 150.519 281.629 150.006 282.947 150.006H328.745C330.063 150.006 331.327 150.519 332.258 151.433C333.19 152.347 333.714 153.586 333.714 154.879C333.714 156.171 333.19 157.41 332.258 158.324C331.327 159.238 330.063 159.751 328.745 159.751Z" fill="#263238"/>
<g opacity="0.2">
<path d="M328.745 186.899H282.947C281.629 186.899 280.365 186.385 279.434 185.472C278.502 184.558 277.979 183.318 277.979 182.026V182.026C277.979 180.734 278.502 179.494 279.434 178.581C280.365 177.667 281.629 177.154 282.947 177.154H328.745C330.063 177.154 331.327 177.667 332.258 178.581C333.19 179.494 333.714 180.734 333.714 182.026C333.714 183.318 333.19 184.558 332.258 185.472C331.327 186.385 330.063 186.899 328.745 186.899Z" fill="black"/>
</g>
<path d="M309.234 239.105H282.951C281.632 239.105 280.367 238.592 279.435 237.678C278.502 236.764 277.979 235.525 277.979 234.232V234.232C277.979 232.94 278.502 231.701 279.435 230.787C280.367 229.873 281.632 229.36 282.951 229.36H309.234C309.887 229.358 310.535 229.483 311.139 229.727C311.743 229.971 312.292 230.33 312.754 230.783C313.216 231.236 313.582 231.774 313.831 232.366C314.081 232.958 314.208 233.592 314.206 234.232V234.232C314.206 235.525 313.682 236.764 312.75 237.678C311.817 238.592 310.553 239.105 309.234 239.105Z" fill="#263238"/>
<path d="M309.234 265.556H282.951C282.297 265.556 281.649 265.43 281.045 265.185C280.441 264.939 279.892 264.58 279.43 264.126C278.968 263.673 278.602 263.135 278.353 262.543C278.104 261.951 277.977 261.317 277.979 260.677V260.677C277.979 259.386 278.502 258.149 279.435 257.236C280.367 256.324 281.632 255.811 282.951 255.811H309.234C310.553 255.811 311.817 256.324 312.75 257.236C313.682 258.149 314.206 259.386 314.206 260.677C314.208 261.317 314.081 261.951 313.832 262.543C313.583 263.135 313.217 263.673 312.755 264.126C312.293 264.58 311.744 264.939 311.14 265.185C310.536 265.43 309.888 265.556 309.234 265.556V265.556Z" fill="#263238"/>
<g opacity="0.2">
<path d="M387.289 265.556H339.356C338.705 265.556 338.061 265.43 337.46 265.185C336.859 264.939 336.313 264.58 335.854 264.126C335.394 263.673 335.03 263.135 334.783 262.543C334.535 261.951 334.408 261.317 334.41 260.677V260.677C334.41 259.386 334.931 258.149 335.859 257.236C336.786 256.324 338.044 255.811 339.356 255.811H387.289C388.601 255.811 389.859 256.324 390.787 257.236C391.714 258.149 392.235 259.386 392.235 260.677C392.237 261.317 392.11 261.951 391.863 262.543C391.615 263.135 391.251 263.673 390.792 264.126C390.332 264.58 389.786 264.939 389.185 265.185C388.584 265.43 387.94 265.556 387.289 265.556V265.556Z" fill="black"/>
</g>
<path d="M360.757 289.919H312.243C310.916 289.919 309.643 289.406 308.705 288.492C307.766 287.578 307.239 286.339 307.239 285.047C307.239 283.754 307.766 282.515 308.705 281.601C309.643 280.687 310.916 280.174 312.243 280.174H360.757C362.084 280.174 363.357 280.687 364.295 281.601C365.234 282.515 365.761 283.754 365.761 285.047C365.761 286.339 365.234 287.578 364.295 288.492C363.357 289.406 362.084 289.919 360.757 289.919Z" fill="#263238"/>
<path d="M369.171 307.321H339.36C336.626 307.321 334.41 309.503 334.41 312.194C334.41 314.885 336.626 317.066 339.36 317.066H369.171C371.905 317.066 374.121 314.885 374.121 312.194C374.121 309.503 371.905 307.321 369.171 307.321Z" fill="#00B259"/>
<path d="M369.171 370.665H339.36C338.709 370.665 338.064 370.539 337.463 370.293C336.861 370.048 336.315 369.688 335.855 369.235C335.395 368.782 335.031 368.244 334.783 367.652C334.535 367.06 334.408 366.426 334.41 365.786V365.786C334.41 364.495 334.932 363.258 335.86 362.345C336.788 361.433 338.047 360.92 339.36 360.92H369.171C370.484 360.92 371.743 361.433 372.672 362.345C373.6 363.258 374.121 364.495 374.121 365.786C374.123 366.426 373.996 367.06 373.749 367.652C373.501 368.244 373.136 368.782 372.676 369.235C372.217 369.688 371.67 370.048 371.069 370.293C370.467 370.539 369.823 370.665 369.171 370.665V370.665Z" fill="#00B259"/>
<path d="M369.171 427.048H339.36C338.047 427.048 336.788 426.535 335.86 425.621C334.932 424.707 334.41 423.468 334.41 422.175C334.41 420.883 334.932 419.644 335.86 418.73C336.788 417.816 338.047 417.303 339.36 417.303H369.171C370.484 417.303 371.743 417.816 372.672 418.73C373.6 419.644 374.121 420.883 374.121 422.175C374.121 423.468 373.6 424.707 372.672 425.621C371.743 426.535 370.484 427.048 369.171 427.048Z" fill="#00B259"/>
<g opacity="0.2">
<path d="M442.978 427.048H390.261C388.937 427.048 387.667 426.535 386.731 425.621C385.794 424.707 385.269 423.468 385.269 422.175C385.269 420.883 385.794 419.644 386.731 418.73C387.667 417.816 388.937 417.303 390.261 417.303H442.978C444.302 417.303 445.572 417.816 446.508 418.73C447.445 419.644 447.97 420.883 447.97 422.175C447.97 423.468 447.445 424.707 446.508 425.621C445.572 426.535 444.302 427.048 442.978 427.048Z" fill="black"/>
</g>
<g opacity="0.2">
<path d="M479.948 427.048H472.424C471.112 427.048 469.854 426.535 468.926 425.621C467.999 424.707 467.478 423.468 467.478 422.175C467.478 420.883 467.999 419.644 468.926 418.73C469.854 417.816 471.112 417.303 472.424 417.303H479.948C481.26 417.303 482.518 417.816 483.446 418.73C484.374 419.644 484.895 420.883 484.895 422.175V422.175C484.895 423.468 484.374 424.707 483.446 425.621C482.518 426.535 481.26 427.048 479.948 427.048V427.048Z" fill="black"/>
</g>
<g opacity="0.2">
<path d="M440.209 370.665H395.816C395.162 370.665 394.514 370.539 393.909 370.293C393.305 370.048 392.756 369.688 392.294 369.235C391.832 368.782 391.466 368.244 391.216 367.652C390.967 367.06 390.84 366.426 390.842 365.786V365.786C390.842 364.495 391.366 363.258 392.299 362.345C393.232 361.433 394.497 360.92 395.816 360.92H440.209C441.528 360.92 442.794 361.433 443.727 362.345C444.659 363.258 445.183 364.495 445.183 365.786C445.185 366.426 445.058 367.06 444.809 367.652C444.56 368.244 444.194 368.782 443.731 369.235C443.269 369.688 442.72 370.048 442.116 370.293C441.512 370.539 440.864 370.665 440.209 370.665V370.665Z" fill="black"/>
</g>
<g opacity="0.2">
<path d="M537.739 395.724H395.823C394.502 395.724 393.235 395.211 392.301 394.297C391.367 393.383 390.842 392.144 390.842 390.852C390.842 389.559 391.367 388.32 392.301 387.406C393.235 386.492 394.502 385.979 395.823 385.979H537.739C539.06 385.979 540.327 386.492 541.261 387.406C542.195 388.32 542.72 389.559 542.72 390.852V390.852C542.72 392.144 542.195 393.383 541.261 394.297C540.327 395.211 539.06 395.724 537.739 395.724V395.724Z" fill="black"/>
</g>
<g opacity="0.2">
<path d="M553.761 370.665H463.39C462.736 370.665 462.089 370.539 461.485 370.293C460.881 370.048 460.333 369.688 459.871 369.235C459.41 368.782 459.044 368.244 458.795 367.652C458.546 367.06 458.419 366.426 458.421 365.786V365.786C458.421 364.495 458.944 363.258 459.876 362.345C460.808 361.433 462.072 360.92 463.39 360.92H553.761C554.415 360.918 555.062 361.043 555.667 361.286C556.271 361.53 556.821 361.888 557.284 362.34C557.747 362.792 558.114 363.329 558.364 363.921C558.615 364.512 558.744 365.146 558.744 365.786V365.786C558.744 367.08 558.219 368.321 557.285 369.236C556.35 370.151 555.083 370.665 553.761 370.665V370.665Z" fill="black"/>
</g>
<g opacity="0.2">
<path d="M429.766 307.321H392.325C389.582 307.321 387.358 309.503 387.358 312.194C387.358 314.885 389.582 317.066 392.325 317.066H429.766C432.509 317.066 434.733 314.885 434.733 312.194C434.733 309.503 432.509 307.321 429.766 307.321Z" fill="black"/>
</g>
<g opacity="0.2">
<path d="M462.442 307.321H453.006C450.225 307.321 447.971 309.503 447.971 312.194C447.971 314.885 450.225 317.066 453.006 317.066H462.442C465.223 317.066 467.478 314.885 467.478 312.194C467.478 309.503 465.223 307.321 462.442 307.321Z" fill="black"/>
</g>
<g opacity="0.2">
<path d="M534.235 307.321H487.109C484.346 307.321 482.107 309.503 482.107 312.194C482.107 314.885 484.346 317.066 487.109 317.066H534.235C536.997 317.066 539.236 314.885 539.236 312.194C539.236 309.503 536.997 307.321 534.235 307.321Z" fill="black"/>
</g>
<path d="M392.784 289.919H381.933C380.6 289.919 379.322 289.406 378.38 288.492C377.438 287.578 376.908 286.339 376.908 285.047C376.908 283.754 377.438 282.515 378.38 281.601C379.322 280.687 380.6 280.174 381.933 280.174H392.784C394.117 280.174 395.395 280.687 396.337 281.601C397.279 282.515 397.809 283.754 397.809 285.047C397.809 286.339 397.279 287.578 396.337 288.492C395.395 289.406 394.117 289.919 392.784 289.919Z" fill="#263238"/>
<g opacity="0.2">
<path d="M483.424 289.919H415.303C413.989 289.919 412.729 289.406 411.8 288.492C410.871 287.578 410.349 286.339 410.349 285.047C410.349 283.754 410.871 282.515 411.8 281.601C412.729 280.687 413.989 280.174 415.303 280.174H483.424C484.738 280.174 485.998 280.687 486.927 281.601C487.856 282.515 488.378 283.754 488.378 285.047C488.378 286.339 487.856 287.578 486.927 288.492C485.998 289.406 484.738 289.919 483.424 289.919Z" fill="black"/>
</g>
<g opacity="0.2">
<path d="M402.594 133.996H356.795C356.142 133.996 355.494 133.87 354.891 133.624C354.287 133.379 353.739 133.019 353.277 132.566C352.816 132.113 352.45 131.575 352.201 130.983C351.952 130.391 351.825 129.757 351.827 129.117V129.117C351.827 127.826 352.351 126.589 353.282 125.676C354.214 124.764 355.478 124.251 356.795 124.251H402.594C403.912 124.251 405.175 124.764 406.107 125.676C407.039 126.589 407.562 127.826 407.562 129.117C407.564 129.757 407.437 130.391 407.188 130.983C406.939 131.575 406.573 132.113 406.112 132.566C405.65 133.019 405.102 133.379 404.498 133.624C403.895 133.87 403.248 133.996 402.594 133.996Z" fill="black"/>
</g>
<g opacity="0.2">
<path d="M461.803 159.751H356.805C355.484 159.751 354.218 159.238 353.285 158.324C352.352 157.41 351.827 156.171 351.827 154.879C351.825 154.238 351.953 153.604 352.202 153.012C352.452 152.42 352.818 151.882 353.281 151.429C353.743 150.976 354.293 150.618 354.898 150.373C355.502 150.129 356.15 150.004 356.805 150.006H461.803C463.123 150.006 464.389 150.519 465.323 151.433C466.256 152.347 466.781 153.586 466.781 154.879V154.879C466.781 156.171 466.256 157.41 465.323 158.324C464.389 159.238 463.123 159.751 461.803 159.751V159.751Z" fill="black"/>
</g>
<g opacity="0.2">
<path d="M574.671 186.899H356.8C355.481 186.899 354.216 186.385 353.284 185.472C352.351 184.558 351.827 183.318 351.827 182.026C351.827 180.734 352.351 179.494 353.284 178.581C354.216 177.667 355.481 177.154 356.8 177.154H574.671C575.99 177.154 577.255 177.667 578.187 178.581C579.12 179.494 579.644 180.734 579.644 182.026C579.644 183.318 579.12 184.558 578.187 185.472C577.255 186.385 575.99 186.899 574.671 186.899Z" fill="black"/>
</g>
<g opacity="0.2">
<path d="M459.709 205.693H356.809C355.488 205.693 354.221 205.18 353.286 204.266C352.352 203.352 351.827 202.113 351.827 200.82V200.82C351.827 199.528 352.352 198.289 353.286 197.375C354.221 196.461 355.488 195.948 356.809 195.948H459.709C461.03 195.948 462.297 196.461 463.231 197.375C464.166 198.289 464.691 199.528 464.691 200.82V200.82C464.691 202.113 464.166 203.352 463.231 204.266C462.297 205.18 461.03 205.693 459.709 205.693V205.693Z" fill="black"/>
</g>
<g opacity="0.2">
<path d="M438.113 239.105H335.212C333.891 239.105 332.624 238.592 331.689 237.678C330.755 236.764 330.23 235.525 330.23 234.232V234.232C330.23 232.94 330.755 231.701 331.689 230.787C332.624 229.873 333.891 229.36 335.212 229.36H438.113C439.434 229.36 440.701 229.873 441.635 230.787C442.569 231.701 443.094 232.94 443.094 234.232C443.094 235.525 442.569 236.764 441.635 237.678C440.701 238.592 439.434 239.105 438.113 239.105Z" fill="black"/>
</g>
<g opacity="0.2">
<path d="M495.922 239.105H461.326C460.001 239.105 458.73 238.592 457.793 237.678C456.856 236.764 456.33 235.525 456.33 234.232C456.33 232.94 456.856 231.701 457.793 230.787C458.73 229.873 460.001 229.36 461.326 229.36H495.922C497.247 229.36 498.518 229.873 499.455 230.787C500.392 231.701 500.918 232.94 500.918 234.232C500.918 235.525 500.392 236.764 499.455 237.678C498.518 238.592 497.247 239.105 495.922 239.105Z" fill="black"/>
</g>
<path d="M584.407 238.409H519.145C517.822 238.409 516.553 237.896 515.617 236.982C514.681 236.068 514.155 234.829 514.155 233.536C514.155 232.244 514.681 231.005 515.617 230.091C516.553 229.177 517.822 228.664 519.145 228.664H584.407C585.731 228.664 587 229.177 587.936 230.091C588.872 231.005 589.398 232.244 589.398 233.536C589.398 234.829 588.872 236.068 587.936 236.982C587 237.896 585.731 238.409 584.407 238.409Z" fill="#263238"/>
<path d="M178.225 211.958H150.611C149.284 211.958 148.011 211.444 147.073 210.531C146.135 209.617 145.607 208.378 145.607 207.085V207.085C145.607 205.793 146.135 204.554 147.073 203.64C148.011 202.726 149.284 202.213 150.611 202.213H178.225C179.552 202.213 180.824 202.726 181.763 203.64C182.701 204.554 183.229 205.793 183.229 207.085C183.229 208.378 182.701 209.617 181.763 210.531C180.824 211.444 179.552 211.958 178.225 211.958Z" fill="#455A64"/>
<path d="M169.868 292.704H150.594C149.271 292.704 148.003 292.19 147.068 291.277C146.133 290.363 145.607 289.123 145.607 287.831C145.607 286.539 146.133 285.299 147.068 284.386C148.003 283.472 149.271 282.959 150.594 282.959H169.868C170.524 282.957 171.174 283.081 171.781 283.325C172.387 283.57 172.938 283.928 173.403 284.381C173.867 284.833 174.236 285.371 174.487 285.963C174.739 286.555 174.868 287.19 174.868 287.831C174.868 288.472 174.739 289.107 174.487 289.699C174.236 290.291 173.867 290.829 173.403 291.281C172.938 291.734 172.387 292.093 171.781 292.337C171.174 292.581 170.524 292.705 169.868 292.704V292.704Z" fill="#455A64"/>
<path d="M204.027 239.105H150.586C149.266 239.105 147.999 238.592 147.066 237.678C146.132 236.764 145.607 235.525 145.607 234.232C145.607 232.94 146.132 231.701 147.066 230.787C147.999 229.873 149.266 229.36 150.586 229.36H204.027C205.348 229.36 206.614 229.873 207.548 230.787C208.481 231.701 209.006 232.94 209.006 234.232V234.232C209.006 235.525 208.481 236.764 207.548 237.678C206.614 238.592 205.348 239.105 204.027 239.105Z" fill="#455A64"/>
<path d="M194.267 265.556H150.51C149.859 265.551 149.216 265.42 148.618 265.171C148.019 264.922 147.477 264.56 147.021 264.105C146.566 263.651 146.207 263.113 145.964 262.522C145.722 261.931 145.6 261.3 145.608 260.663C145.606 260.027 145.732 259.396 145.98 258.807C146.228 258.219 146.592 257.684 147.051 257.233C147.51 256.782 148.056 256.425 148.656 256.181C149.257 255.937 149.901 255.811 150.551 255.811H194.309C194.959 255.811 195.603 255.937 196.204 256.181C196.804 256.425 197.35 256.782 197.809 257.233C198.268 257.684 198.632 258.219 198.88 258.807C199.127 259.396 199.254 260.027 199.252 260.663V260.663C199.259 261.307 199.136 261.945 198.888 262.541C198.64 263.137 198.273 263.679 197.809 264.134C197.345 264.59 196.793 264.95 196.184 265.194C195.576 265.439 194.924 265.561 194.267 265.556Z" fill="#455A64"/>
<path d="M256.033 134.692C258.919 134.692 261.258 132.355 261.258 129.472C261.258 126.588 258.919 124.251 256.033 124.251C253.147 124.251 250.808 126.588 250.808 129.472C250.808 132.355 253.147 134.692 256.033 134.692Z" fill="#263238"/>
<path d="M261.258 155.227C261.258 156.259 260.951 157.269 260.377 158.127C259.803 158.986 258.987 159.655 258.032 160.05C257.078 160.445 256.027 160.548 255.013 160.347C254 160.146 253.069 159.648 252.338 158.918C251.607 158.188 251.11 157.258 250.908 156.245C250.706 155.233 250.81 154.183 251.205 153.229C251.601 152.275 252.271 151.46 253.13 150.886C253.989 150.312 254.999 150.006 256.033 150.006C257.419 150.006 258.748 150.556 259.728 151.535C260.707 152.514 261.258 153.842 261.258 155.227V155.227Z" fill="#263238"/>
<path d="M256.033 187.595C258.919 187.595 261.258 185.257 261.258 182.374C261.258 179.491 258.919 177.154 256.033 177.154C253.147 177.154 250.808 179.491 250.808 182.374C250.808 185.257 253.147 187.595 256.033 187.595Z" fill="#263238"/>
<path d="M261.258 209.507C261.261 210.54 260.957 211.551 260.384 212.411C259.812 213.272 258.997 213.943 258.042 214.341C257.088 214.738 256.037 214.843 255.022 214.643C254.008 214.444 253.075 213.948 252.343 213.218C251.611 212.489 251.112 211.558 250.909 210.545C250.706 209.532 250.809 208.482 251.204 207.527C251.599 206.572 252.269 205.756 253.128 205.182C253.988 204.607 254.999 204.301 256.033 204.301C256.718 204.299 257.397 204.432 258.031 204.693C258.665 204.954 259.241 205.337 259.727 205.821C260.212 206.304 260.597 206.879 260.86 207.511C261.123 208.144 261.258 208.822 261.258 209.507V209.507Z" fill="#263238"/>
<path d="M256.033 241.193C258.919 241.193 261.258 238.856 261.258 235.973C261.258 233.089 258.919 230.752 256.033 230.752C253.147 230.752 250.808 233.089 250.808 235.973C250.808 238.856 253.147 241.193 256.033 241.193Z" fill="#263238"/>
<path d="M261.258 263.12C261.258 264.153 260.951 265.162 260.377 266.02C259.803 266.879 258.987 267.548 258.032 267.943C257.078 268.338 256.027 268.442 255.013 268.24C254 268.039 253.069 267.542 252.338 266.812C251.607 266.081 251.11 265.151 250.908 264.139C250.706 263.126 250.81 262.076 251.205 261.122C251.601 260.168 252.271 259.353 253.13 258.779C253.989 258.206 254.999 257.899 256.033 257.899C256.719 257.898 257.4 258.031 258.035 258.293C258.669 258.555 259.246 258.939 259.732 259.424C260.217 259.909 260.602 260.486 260.864 261.12C261.126 261.754 261.26 262.434 261.258 263.12Z" fill="#263238"/>
<path d="M256.033 295.488C258.919 295.488 261.258 293.151 261.258 290.267C261.258 287.384 258.919 285.047 256.033 285.047C253.147 285.047 250.808 287.384 250.808 290.267C250.808 293.151 253.147 295.488 256.033 295.488Z" fill="#263238"/>
<path d="M261.258 317.414C261.258 318.447 260.951 319.456 260.377 320.315C259.803 321.173 258.987 321.843 258.032 322.238C257.078 322.633 256.027 322.736 255.013 322.535C254 322.333 253.069 321.836 252.338 321.106C251.607 320.376 251.11 319.446 250.908 318.433C250.706 317.42 250.81 316.371 251.205 315.417C251.601 314.463 252.271 313.647 253.13 313.074C253.989 312.5 254.999 312.194 256.033 312.194C257.419 312.194 258.748 312.744 259.728 313.723C260.707 314.702 261.258 316.03 261.258 317.414V317.414Z" fill="#263238"/>
<path d="M256.033 349.086C258.919 349.086 261.258 346.749 261.258 343.866C261.258 340.982 258.919 338.645 256.033 338.645C253.147 338.645 250.808 340.982 250.808 343.866C250.808 346.749 253.147 349.086 256.033 349.086Z" fill="#263238"/>
<path d="M261.258 371.013C261.258 372.046 260.951 373.055 260.377 373.914C259.803 374.772 258.987 375.441 258.032 375.836C257.078 376.231 256.027 376.335 255.013 376.133C254 375.932 253.069 375.435 252.338 374.705C251.607 373.975 251.11 373.044 250.908 372.032C250.706 371.019 250.81 369.969 251.205 369.015C251.601 368.061 252.271 367.246 253.13 366.672C253.989 366.099 254.999 365.793 256.033 365.793C256.719 365.791 257.4 365.924 258.035 366.186C258.669 366.448 259.246 366.832 259.732 367.317C260.217 367.803 260.602 368.379 260.864 369.013C261.126 369.647 261.26 370.327 261.258 371.013V371.013Z" fill="#263238"/>
<path d="M256.033 403.381C258.919 403.381 261.258 401.044 261.258 398.16C261.258 395.277 258.919 392.94 256.033 392.94C253.147 392.94 250.808 395.277 250.808 398.16C250.808 401.044 253.147 403.381 256.033 403.381Z" fill="#263238"/>
<path d="M261.258 425.308C261.258 426.34 260.951 427.349 260.377 428.208C259.803 429.066 258.987 429.736 258.032 430.131C257.078 430.526 256.027 430.629 255.013 430.428C254 430.226 253.069 429.729 252.338 428.999C251.607 428.269 251.11 427.339 250.908 426.326C250.706 425.313 250.81 424.264 251.205 423.31C251.601 422.356 252.271 421.54 253.13 420.967C253.989 420.393 254.999 420.087 256.033 420.087C257.419 420.087 258.748 420.637 259.728 421.616C260.707 422.595 261.258 423.923 261.258 425.308V425.308Z" fill="#263238"/>
<path d="M554.619 59.5151H773.784C775.187 59.5151 776.577 59.7918 777.873 60.3292C779.17 60.8666 780.348 61.6543 781.34 62.6474C782.333 63.6404 783.12 64.8193 783.657 66.1168C784.194 67.4142 784.47 68.8049 784.47 70.2092V452.495C784.47 454.792 783.559 456.995 781.935 458.619C780.312 460.243 778.111 461.156 775.815 461.156H554.563V59.5151H554.619Z" fill="#F9FAFB"/>
<path d="M770.537 126.339H554.563V282.262H770.537V126.339Z" fill="#00B259"/>
<path d="M604.85 194.384L551.776 253.027V282.262H757.299V253.027L712.015 207.781L672.161 242.17C668.746 245.117 663.608 244.82 660.555 241.5L617.192 194.336C613.866 190.717 608.149 190.74 604.85 194.384Z" fill="#008A5E"/>
<rect x="660.111" y="409.646" width="81.8608" height="24.363" rx="12.1815" fill="#00B259"/>
<rect x="537.146" y="409.646" width="81.8608" height="24.363" rx="12.1815" fill="#00B259"/>
<path d="M770.537 59.5151H774.381C777.242 59.5151 779.986 60.6389 782.008 62.6393C784.031 64.6397 785.168 67.3528 785.168 70.1817V452.077C785.168 454.485 784.2 456.794 782.478 458.497C780.757 460.199 778.422 461.156 775.987 461.156H770.537V59.5151Z" fill="#F5F5F5"/>
<path d="M777.859 124.947C776.898 124.949 775.947 124.764 775.058 124.404C774.17 124.043 773.363 123.514 772.683 122.846C772.003 122.179 771.463 121.386 771.095 120.512C770.727 119.639 770.537 118.703 770.537 117.758V79.9297C770.537 78.9844 770.727 78.0485 771.095 77.1754C771.463 76.3023 772.003 75.5092 772.683 74.8414C773.363 74.1737 774.17 73.6444 775.058 73.284C775.947 72.9235 776.898 72.7389 777.859 72.7407C779.798 72.7407 781.657 73.4981 783.027 74.8463C784.398 76.1945 785.168 78.023 785.168 79.9297V117.758C785.168 119.665 784.398 121.493 783.027 122.841C781.657 124.19 779.798 124.947 777.859 124.947Z" fill="#E0E0E0"/>
<rect x="644.783" y="75.1771" width="101.719" height="28.5395" rx="14.2697" fill="white" stroke="#E5E7EB" stroke-width="2.78434"/>
<path d="M608.906 89.0988C608.906 89.2996 596.579 89.4468 581.386 89.4468C566.193 89.4468 553.867 89.2996 553.867 89.0988C553.867 88.898 566.193 88.7507 581.386 88.7507C596.579 88.7507 608.906 88.9114 608.906 89.0988Z" fill="#E0E0E0"/>
<path d="M668.82 191.075C677.285 191.075 684.147 184.219 684.147 175.761C684.147 167.304 677.285 160.448 668.82 160.448C660.355 160.448 653.493 167.304 653.493 175.761C653.493 184.219 660.355 191.075 668.82 191.075Z" fill="white"/>
<g filter="url(#filter0_d_475_1925)">
<rect x="743.366" y="226.575" width="172.082" height="172.629" rx="13.9217" fill="#F9FAFB"/>
</g>
<path d="M837.047 310H818.939C816.842 310 814.766 309.594 812.83 308.805C810.893 308.016 809.134 306.859 807.654 305.402C806.173 303.944 805 302.214 804.201 300.31C803.403 298.407 802.995 296.367 803 294.308V256H853V294.308C853.005 296.368 852.597 298.409 851.797 300.313C850.998 302.218 849.824 303.949 848.341 305.406C846.859 306.864 845.099 308.02 843.161 308.809C841.222 309.597 839.145 310.002 837.047 310Z" fill="#D4D4D4"/>
<path d="M810.945 266.252C810.945 266.803 810.781 267.341 810.475 267.799C810.169 268.257 809.733 268.614 809.224 268.825C808.715 269.035 808.155 269.091 807.614 268.983C807.074 268.876 806.577 268.611 806.187 268.221C805.798 267.832 805.532 267.336 805.425 266.796C805.317 266.255 805.372 265.696 805.583 265.187C805.794 264.678 806.151 264.243 806.61 263.937C807.068 263.631 807.607 263.468 808.158 263.468C808.897 263.468 809.606 263.761 810.128 264.284C810.651 264.806 810.945 265.514 810.945 266.252Z" fill="#27272A"/>
<path d="M781.684 360.92C790.149 360.92 797.011 354.063 797.011 345.606C797.011 337.148 790.149 330.292 781.684 330.292C773.219 330.292 766.356 337.148 766.356 345.606C766.356 354.063 773.219 360.92 781.684 360.92Z" fill="#7AC143"/>
<path d="M851.5 261.5L860.379 290.61C862.122 297.81 857.537 303.5 849.992 303.5H831.219C824.898 303.5 818.33 298.834 816.175 292.814L808 266" stroke="#27272A" stroke-width="2.5"/>
<rect x="850" y="261" width="3" height="10" fill="#D4D4D4"/>
<path d="M803.281 256.054C810.515 261.164 817.97 264.522 826.929 264.346C835.887 264.171 845.721 261.38 852.746 256L803.281 256.054Z" fill="#00B259"/>
<path d="M852.704 256.014C852.969 257.188 851.307 258.292 851.391 259.508C851.41 260.616 851.087 261.702 850.468 262.62C849.848 263.538 848.961 264.242 847.927 264.638C847.753 264.695 847.592 264.785 847.452 264.904C846.576 265.836 846.078 267.062 846.056 268.342L845.134 274.604C845.028 275.916 844.678 277.196 844.101 278.378C843.806 278.967 843.357 279.463 842.8 279.813C842.243 280.163 841.602 280.353 840.944 280.363C839.045 280.237 837.872 278.196 837.592 276.323C837.229 273.975 837.69 271.459 836.084 269.432C835.741 268.948 835.253 268.585 834.691 268.397C834.128 268.208 833.521 268.204 832.955 268.384C830.162 269.432 831.838 273.975 829.129 275.037C828.748 275.171 828.341 275.209 827.942 275.151C827.544 275.093 827.165 274.939 826.838 274.702C825.596 273.634 824.803 272.137 824.618 270.509C824.003 268.067 823.393 265.612 822.788 263.143L852.746 256" fill="#00B259"/>
<path d="M829.059 360.92C837.524 360.92 844.386 354.063 844.386 345.606C844.386 337.148 837.524 330.292 829.059 330.292C820.594 330.292 813.731 337.148 813.731 345.606C813.731 354.063 820.594 360.92 829.059 360.92Z" fill="#00B259"/>
<path d="M876.434 360.92C884.899 360.92 891.761 354.063 891.761 345.606C891.761 337.148 884.899 330.292 876.434 330.292C867.969 330.292 861.106 337.148 861.106 345.606C861.106 354.063 867.969 360.92 876.434 360.92Z" fill="#00B259"/>
<g opacity="0.2">
<path d="M876.434 360.92C884.899 360.92 891.761 354.063 891.761 345.606C891.761 337.148 884.899 330.292 876.434 330.292C867.969 330.292 861.106 337.148 861.106 345.606C861.106 354.063 867.969 360.92 876.434 360.92Z" fill="black"/>
</g>
<g filter="url(#filter1_d_475_1925)">
<rect x="695.991" y="185.507" width="91.2661" height="89.0988" rx="13.9217" fill="white"/>
</g>
<path d="M716.682 204.724H766.468V221.495H764.099C763.309 215.514 761.075 211.465 757.397 209.35C754.488 208.001 751.307 207.345 748.103 207.435V251.125C748.103 254.191 748.632 256.217 749.691 257.205C750.75 258.192 752.966 258.696 756.338 258.714V260.811H726.938V258.686C730.17 258.686 732.316 258.183 733.375 257.163C734.434 256.143 734.963 254.13 734.963 251.097V207.393C731.766 207.324 728.594 207.979 725.684 209.308C721.726 211.47 719.492 215.518 718.981 221.453H716.543L716.682 204.724Z" fill="#27272A"/>
<g filter="url(#filter2_d_475_1925)">
<rect x="153.968" y="312.194" width="125.404" height="185.158" rx="13.9217" fill="white"/>
</g>
<rect x="241" y="344" width="7" height="122" rx="3.5" fill="#D9D9D9"/>
<rect x="213" y="344" width="7" height="122" rx="3.5" fill="#D9D9D9"/>
<rect x="185" y="344" width="7" height="122" rx="3.5" fill="#D9D9D9"/>
<circle cx="189" cy="392" r="7" fill="#008A5E"/>
<circle cx="217" cy="421" r="7" fill="#008A5E"/>
<circle cx="245" cy="371" r="7" fill="#008A5E"/>
<rect x="542.72" y="245.37" width="11.8437" height="44.5494" fill="#53666F"/>
<rect x="532.27" y="396.768" width="22.294" height="45.9416" fill="#53666F"/>
<line x1="555.956" y1="88.0546" x2="607.513" y2="88.0546" stroke="#D1D5DB" stroke-width="2.78434" stroke-linecap="round"/>
<line x1="555.956" y1="349.782" x2="620.402" y2="349.782" stroke="#D1D5DB" stroke-width="2.78434" stroke-linecap="round"/>
<line x1="646.176" y1="349.782" x2="741.973" y2="349.782" stroke="#D1D5DB" stroke-width="2.78434" stroke-linecap="round"/>
<line x1="555.956" y1="328.9" x2="607.513" y2="328.9" stroke="#D1D5DB" stroke-width="2.78434" stroke-linecap="round"/>
<line x1="663.942" y1="328.9" x2="741.973" y2="328.9" stroke="#D1D5DB" stroke-width="2.78434" stroke-linecap="round"/>
<line x1="555.956" y1="366.488" x2="620.402" y2="366.488" stroke="#D1D5DB" stroke-width="2.78434" stroke-linecap="round"/>
<line x1="646.176" y1="366.488" x2="741.973" y2="366.488" stroke="#D1D5DB" stroke-width="2.78434" stroke-linecap="round"/>
<line x1="555.956" y1="383.195" x2="620.402" y2="383.194" stroke="#D1D5DB" stroke-width="2.78434" stroke-linecap="round"/>
<line x1="646.176" y1="383.195" x2="741.973" y2="383.194" stroke="#D1D5DB" stroke-width="2.78434" stroke-linecap="round"/>
<defs>
<filter id="filter0_d_475_1925" x="730.141" y="222.051" width="198.533" height="199.08" filterUnits="userSpaceOnUse" color-interpolation-filters="sRGB">
<feFlood flood-opacity="0" result="BackgroundImageFix"/>
<feColorMatrix in="SourceAlpha" type="matrix" values="0 0 0 0 0 0 0 0 0 0 0 0 0 0 0 0 0 0 127 0" result="hardAlpha"/>
<feMorphology radius="4.17651" operator="erode" in="SourceAlpha" result="effect1_dropShadow_475_1925"/>
<feOffset dy="8.70106"/>
<feGaussianBlur stdDeviation="8.70106"/>
<feColorMatrix type="matrix" values="0 0 0 0 0 0 0 0 0 0 0 0 0 0 0 0 0 0 0.25 0"/>
<feBlend mode="normal" in2="BackgroundImageFix" result="effect1_dropShadow_475_1925"/>
<feBlend mode="normal" in="SourceGraphic" in2="effect1_dropShadow_475_1925" result="shape"/>
</filter>
<filter id="filter1_d_475_1925" x="682.766" y="180.982" width="117.717" height="115.55" filterUnits="userSpaceOnUse" color-interpolation-filters="sRGB">
<feFlood flood-opacity="0" result="BackgroundImageFix"/>
<feColorMatrix in="SourceAlpha" type="matrix" values="0 0 0 0 0 0 0 0 0 0 0 0 0 0 0 0 0 0 127 0" result="hardAlpha"/>
<feMorphology radius="4.17651" operator="erode" in="SourceAlpha" result="effect1_dropShadow_475_1925"/>
<feOffset dy="8.70106"/>
<feGaussianBlur stdDeviation="8.70106"/>
<feColorMatrix type="matrix" values="0 0 0 0 0 0 0 0 0 0 0 0 0 0 0 0 0 0 0.25 0"/>
<feBlend mode="normal" in2="BackgroundImageFix" result="effect1_dropShadow_475_1925"/>
<feBlend mode="normal" in="SourceGraphic" in2="effect1_dropShadow_475_1925" result="shape"/>
</filter>
<filter id="filter2_d_475_1925" x="140.742" y="307.669" width="151.855" height="211.61" filterUnits="userSpaceOnUse" color-interpolation-filters="sRGB">
<feFlood flood-opacity="0" result="BackgroundImageFix"/>
<feColorMatrix in="SourceAlpha" type="matrix" values="0 0 0 0 0 0 0 0 0 0 0 0 0 0 0 0 0 0 127 0" result="hardAlpha"/>
<feMorphology radius="4.17651" operator="erode" in="SourceAlpha" result="effect1_dropShadow_475_1925"/>
<feOffset dy="8.70106"/>
<feGaussianBlur stdDeviation="8.70106"/>
<feColorMatrix type="matrix" values="0 0 0 0 0 0 0 0 0 0 0 0 0 0 0 0 0 0 0.25 0"/>
<feBlend mode="normal" in2="BackgroundImageFix" result="effect1_dropShadow_475_1925"/>
<feBlend mode="normal" in="SourceGraphic" in2="effect1_dropShadow_475_1925" result="shape"/>
</filter>
</defs>
</svg>
