
<svg viewBox="0 0 40 40" fill="none" shape-rendering="geometricPrecision" xmlns="http://www.w3.org/2000/svg">
  <g xmlns="http://www.w3.org/2000/svg" id="id-611b44af19861" data-name="block">
    <rect id="id-611b44af19868" width="40" height="40" fill="#ffffff"/>
    <rect id="id-611b44af1986d" width="8" height="8" transform="translate(00 16)" fill="#00875c"/>
    <rect id="id-611b44af19871" width="8" height="8" transform="translate(24 08)" fill="#00875c"/>
    <rect id="id-611b44af19876" width="8" height="8" transform="translate(32 24)" fill="#00875c"/>
    <rect id="id-611b44af1987a" width="8" height="8" transform="translate(00 08)" fill="#c1d72f"/>
    <rect id="id-611b44af1987f" width="8" height="8" transform="translate(08 24)" fill="#c1d72f"/>
    <rect id="id-611b44af19884" width="8" height="8" transform="translate(32 00)" fill="#c1d72f"/>
    <rect id="id-611b44af19888" width="8" height="8" transform="translate(32 16)" fill="#c1d72f"/>
    <rect id="id-611b44af1988d" width="8" height="8" transform="translate(24 32)" fill="#c1d72f"/>
    <rect id="id-611b44af19890" width="8" height="8" transform="translate(16 00)" fill="#c1d72f"/>
    <rect id="id-611b44af19896" width="8" height="8" transform="translate(08 16)" fill="#77cc44"/>
    <rect id="id-611b44af1989a" width="8" height="8" transform="translate(08 00)" fill="#77cc44"/>
    <rect id="id-611b44af1989e" width="8" height="8" transform="translate(24 16)" fill="#77cc44"/>
    <rect id="id-611b44af198a2" width="8" height="8" transform="translate(32 08)" fill="#77cc44"/>
    <rect id="id-611b44af198a6" width="8" height="8" transform="translate(00 24)" fill="#77cc44"/>
    <rect id="id-611b44af198ab" width="8" height="8" transform="translate(08 32)" fill="#77cc44"/>
    <rect id="id-611b44af198af" width="8" height="8" transform="translate(00 32)" fill="#00b259"/>
    <rect id="id-611b44af198b3" width="8" height="8" transform="translate(32 32)" fill="#00b259"/>
    <rect id="id-611b44af198b8" width="8" height="8" transform="translate(24 24)" fill="#00b259"/>
    <rect id="id-611b44af198bc" width="8" height="8" transform="translate(24 00)" fill="#00b259"/>
    <rect id="id-611b44af198bf" width="8" height="8" fill="#00b259"/>
    <path id="id-611b44af198c3" d="M.022.022h8l-4,4v4h-4Z" transform="translate(8 8)" fill="#00b259"/>
  </g>
</svg>
